{
	"label": "Traits",

	"mapping":
	{
		"effects":
		{
			"path": "effects",
			"converter": "effectConverter"
		}
	},

	"entries":
	[
		{
			"id": "# Tentacles",
			"name": "# Tentacules X",
			"description": "<p>La créature possède un nombre # de tentacules.</p>\n            <ul>\n            <li>Gagnez une Action d'Attaque gratuite par tentacule.</li>\n            <li>Les tentacules infligent X Dégâts, qui incluent déjà son bonus de Force</li>\n            <li>Si elle cause des Dégâts, elle peut aussi infliger à son adversaire l'État Empétré, bien que cela entame une Empoignade avec ce tentacule.\n            <ul>\n            <li>Si une tentacule est en Empoignade, vous pouvez utiliser une Action d'Attaque gratuite pour résoudre l'Empoignade au lieu de l'Action de la créature Concise # Tentacles (Rating):</li>\n            </ul>\n            </li>\n            </ul>"
		},
		{
			"id": "Tentacles",
			"name": "Tentacules",
			"description": "<p>La créature possède un nombre # de tentacules.</p>\n            <ul>\n            <li>Gagnez une Action d'Attaque gratuite par tentacule.</li>\n            <li>Les tentacules infligent X Dégâts, qui incluent déjà son bonus de Force</li>\n            <li>Si elle cause des Dégâts, elle peut aussi infliger à son adversaire l'État Empétré, bien que cela entame une Empoignade avec ce tentacule.\n            <ul>\n            <li>Si une tentacule est en Empoignade, vous pouvez utiliser une Action d'Attaque gratuite pour résoudre l'Empoignade au lieu de l'Action de la créature Concise # Tentacles (Rating):</li>\n            </ul>\n            </li>\n            </ul>"
		},
		{
			"id": "Afraid",
			"name": "Craintif",
			"description": "<p>La créature a @Compendium[wfrp4e-core.psychologies.Ib2YQYChktDFN93y]{Peur (0)} de la Cible. Voir les règles de la @Compendium[wfrp4e-core.psychologies.Ib2YQYChktDFN93y]{Peur}.</p>"
		},
		{
			"id": "Amphibious",
			"name": "Amphibie",
			"description": "La créature est à l'aise dans l'eau. Elle peut ajouter un DR égal à son bonus d'Agilité à tous les Tests de Natation et se déplace à sa vitesse maximale de Mouvement dans l'eau  \r\r"
		},
		{
			"id": "Animosity",
			"name": "Animosité",
			"description": "<p>La créature déteste la Cible. Voir les règles de l'@Compendium[wfrp4e-core.psychologies.Q2MCUrG2HppMcvN0]{Animosité}.</p>"
		},
		{
			"id": "Arboreal",
			"name": "Arboricole",
			"description": "<p>La créature est chez elle dans les forêts. Dans les régions boisées, elle ajoute son Bonus d'Agilité au DR de tous les tests d'@Compendium[wfrp4e-core.skills.sRuMlaPU5xdIrwhd]{Escalade} et de @Compendium[wfrp4e-core.skills.McTtmZu3Ac8Lh48W]{Discrétion}.</p>",
			"effects":
			[
				{
					"label": "Arboricole"
				}
			]
		},
		{
			"id": "Armour",
			"name": "Armure",
			"description": "<p>La créature est protégée par une armure ou une peau épaisse. Elle a Indice points d'Armure à toutes ses localisations.</p>",
			"effects":
			[
				{
					"label": "Armure"
				}
			]
		},
		{
			"id": "Belligerent",
			"name": "Belliqueux",
			"description": "<p>La créature adore gagner ses combats. Tant qu'elle a plus de points d'@Compendium[wfrp4e-core.journal-entries.sAFW2R7LeDYN5Z5F]{Avantage} que son adversaire, elle possède l'@Compendium[wfrp4e-core.traits.IAWyzDfC286a9MPz]{Immunité à la Pyschologie}.</p>"
		},
		{
			"id": "Bestial",
			"name": "Bestial",
			"description": "<p>La créature ne possède ni pensée rationelle, ni langage. Elle fuit le feu et prend un état <em>@Condition[Brisé]</em> si elle est touchée par celui-ci. En défense, elle ne peut seulement utiliser que la compétence d'@Compendium[wfrp4e-core.skills.1jCxbFAUuFuAPLJl]{Esquive}. Si elle perd plus de la moitié de ses points de @Compendium[wfrp4e-core.journal-entries.Ssod4QuBdyMS6F79]{Blessure}, elle tente de fuir à moins qu'elle ne protège son petit, qu'elle ne soit acculée ou ne possède le trait <em>@Compendium[wfrp4e-core.traits.JIAe7i7dqTQBu4do]{Territorial}</em>. Dans ce cas, elle entre en @Compendium[wfrp4e-core.psychologies.DrNUTPeodEgpWTnT]{Frénésie}. Les créatures bestiales n'ont pas de caractéristique de Sociabilité.</p>"
		},
		{
			"id": "Big",
			"name": "Grand",
			"description": "La créature est un grand spécimen de son espèce. Elle reçoit +10 en F et en E et -5 en Ag.\r\r"
		},
		{
			"id": "Bite",
			"name": "Morsure",
			"description": "<p>Pendant son tour, la créature peut effectuer une attaque gratuite en dépensant 1 point d'@Compendium[wfrp4e-core.journal-entries.sAFW2R7LeDYN5Z5F]{Avantage}. Les dégâts de l'attaque sont égaux à l'Indice et <em>incluent déjà le bonus de Force de la créature</em>.</p>"
		},
		{
			"id": "Blessed",
			"name": "Bienheureux",
			"description": "La créature est un Bienheureux et peut accorder des Bénédictions. La divinité concernée est indiquée entre parenthèses."
		},
		{
			"id": "Bounce",
			"name": "Bond",
			"description": "La créature a la capacité de bondir haut, soit grâce à des jambes puissantes, à la magie ou à des ailes courtes. Quand elle Charge ou Court, elle double sa Caractéristique de Mouvement, et elle peut ignorer tous les terrains et les personnages qui s'interposent quand elle les dépasse. \r\r"
		},
		{
			"id": "Breath",
			"name": "Souffle",
			"description": "<p>Le souffle de la créature est une arme puissante. Pendant son tour, au prix de 2 Avantages, elle peut activer son Souffle en tant qu'Attaque gratuite. Choisissez 1 cible qu'elle peut voir, située à une distance en mètres égale à son Bonus d'Endurance + 20. Tous les personnages situés à une distance en mètres égale à son Bonus de Force de cette cible sont touchés, ainsi que tous les personnages entre la créature et la cible. Effectuez un Test opposé de Compétence de CT /Esquive contre toutes les cibles affectées (un lancer pour chaque cible). Toutes les cibles qui échouent subissent un montant de Dégâts d'Arme égal à (X). De plus, si le trait indique l'un des types suivants entre parenthèses, appliquez également les règles correspondantes :</p>\n                <p>• Froid : les cibles gagnent l'État Assommé pour chaque tranche de 5 Blessures subies (minimum 1).</p>\n                <p>• Corrosif : toutes les Armures et Armes portées par les cibles subissent 1 Dégât.</p>\n                <p>• Feu : toutes les Blessures infligées ignorent les PA. Les cibles gagnent l'Etat Enflammé.</p>\n                <p>• Électricité : toutes les Blessures infligées ignorent les PA. Les cibles gagnent l'État Assommé.</p>\n                <p>• Poison : toutes les Blessures infligées ignorent les PA. Les cibles gagnent l'Etat Empoisonné.</p>\n                <p>• Fumée : la zone se remplit de fumée, bloquant les Lignes de vue pendant un nombre de rounds égal au Bonus d'Endurance de la créature.</p>\n                <p>La créature est immunisée à votre propre Souffle. Il s'agit d'une Attaque Magique.</p>"
		},
		{
			"id": "Brute",
			"name": "Brutal",
			"description": "La créature est lourde et brutale. Elle reçoit -1 en M, -10 en Ag et +l0 en F et en E. \r\r"
		},
		{
			"id": "Champion",
			"name": "Champion",
			"description": "La créature est un guerrier exceptionnel. Si elle gagne un Test opposé en se défendant dans un Combat au Corps à corps, elle cause autant de Dégâts que si elle était l'attaquant. \r\r"
		},
		{
			"id": "Chill Grasp",
			"name": "Etreinte glaciale",
			"description": "<p>Le toucher de la créature glace l'âme de son ennemi. Au prix de 2 Avantages et de son Action, elle peut tenter un Test opposé de CC/Corps à corps ou Esquive. Sur un succès, son adversaire perd automatiquement ldl0 + DR Blessures qui ignorent le Bonus d'Endurance et les PA. Il s'agit d'une Attaque Magique.</p>"
		},
		{
			"id": "Clever",
			"name": "Intelligent",
			"description": "La créature possède un esprit particulièrement aiguisé. Recevez + 20 en Int et +10 en I. \r\r"
		},
		{
			"id": "Cold Blooded",
			"name": "A Sang Froid",
			"description": "La créature est à sang-froid et lente à réagir. Vous pouvez inverser tous ses tests de FM. \r\r"
		},
		{
			"id": "Constrictor",
			"name": "Constricteur",
			"description": "La créature comprime et écrase sa proie. Tout lancer réussi pour toucher donne à son adversaire l'État Empêtré. Elle peut ensuite entamer une Empoignade si souhaité.\r\r"
		},
		{
			"id": "Construct",
			"name": "Fabrication",
			"description": "<p>Cette créature est une fabrication de la magie, complètement stupide, dont l'intégrité est maintenue par des tendons magiques. Elle ne possède pas de caractéristiques d'Intelligence, de Force Mentale ou de Sociabilité, et n'a donc jamais besoin de Test pour celles-ci. Si aucun sorcier ne la contrôle et qu'elle ne possède pas le trait <em>@Compendium[wfrp4e-core.traits.JIAe7i7dqTQBu4do]{Territorial}</em>, la créature erre sans raison, suivant les flux de magie alentours.</p><p>Pour le calcul des points de @Compendium[wfrp4e-core.journal-entries.Ssod4QuBdyMS6F79]{Blessure} de la créature, utilisez son Bonus de Force quand son Bonus de Force Mentale est nécessaire. Toutes ses attaques sont <em>magiques</em>.</p>",
			"effects":
			[
				{
					"label": "Fabrication"
				}
			]

		},
		{
			"id": "Corrosive Blood",
			"name": "Sang corrosif",
			"description": "Le sang de la créature est corrosif. Chaque fois qu'elle subit des Blessures dont le sang éclabousse, tous ceux qui sont Engagés avec elle reçoivent ldl0 Points de Blessure modifiés par le Bonus d'Endurance et la PA.\r\r"
		},
		{
			"id": "Corruption",
			"name": "Corruption",
			"description": "<p>La créature est souillée par le Chaos, ou peut-être est-elle imprégnée de Magie noire. Le Puissance de de @Compendium[wfrp4e-core.journal-entries.u7IJ1xm4pO5s9QgS]{Corruption} est indiqué entre parenthèses.</p>"
		},
		{
			"id": "Cunning",
			"name": "Sournois",
			"description": "La créature est sournoise. Elle reçoit +10 en Soc, Int et I.\r\r"
		},
		{
			"id": "Daemonic",
			"name": "Démoniaque",
			"description": "<p>L’essence de la créature est constituée de magie brute et de l'ichor impie coule dans ses veines. Ces créatures n'ont besoin ni d’eau, ni de nourriture, ni d'air ...</p>\n                <p>Toutes ses attaques sont Magiques. Lancez 1d10 après chaque coup reçu, si la créature obtient le nombre de la cible ou plus, le coup est ignoré, même s'il s'agit d'un critique. Si la créature tombe à 0 Point de Blessure, son âme retourne immédiatement dans les Royaumes du Chaos, ce qui la retire du jeu.</p>"
		},
		{
			"id": "Dark Vision",
			"name": "Infravision",
			"description": "<p>La créature peut voir dans l'obscurité comme en plein jour.</p>"
		},
		{
			"id": "Die Hard",
			"name": "Irréductible",
			"description": "<p>Peu importe à quel point la créature est touchée, elle se relève. Toutes les @Compendium[wfrp4e-core.journal-entries.Ssod4QuBdyMS6F79]{Blessures critiques} n'entraînant pas la mort peuvent être soignées ; attachez juste les parties du corps nécessaires aux bons endroits, éventuellement avec des agrafes ou de gros clous pour les maintenir en place, et c'est reparti. Même la \"mort\" peut être \"soignée\" si les parties appropriées, comme une tête décapitée, sont rattachées au corps. Si la mort survient et que toutes les parties sont en place, elle peut tenter un test de <strong>@Compendium[wfrp4e-core.skills.CcNJsS4jSwB6Ug1J]{Résistance} Exigeant (+0)</strong> nécessitant un DR de 6 au début de chaque manche pendant un nombre de manches égal à son Bonus d'Endurance après la mort. Si le test est réussi, la créature revient à la vie avec 1 point de @Compendium[wfrp4e-core.journal-entries.Ssod4QuBdyMS6F79]{Blessure}.</p>"
		},
		{
			"id": "Disease",
			"name": "Maladie",
			"description": "La créature est porteuse de la maladie (X). Les autres doivent faire un test approprié pour éviter la contamination."
		},
		{
			"id": "Distracting",
			"name": "Perturbant",
			"description": "La créature perturbe ou désoriente ses ennemis : peut-être qu'elle dégage un musc soporifique ou une odeur nauséabonde, ou peut-être que son apparence est horrifiante ou étrange. Quiconque se trouvant à un nombre de mètres égal à son Bonus d'Endurance obtient une pénalité de -20 à tous ses Tests. Les créatures touchées ne peuvent subir cette pénalité qu'une seule fois, peu importe le nombre d'ennemis Perturbants.\r\r"
		},
		{
			"id": "Elite",
			"name": "Élite",
			"description": "<p>La créature est un vétéran endurci. Elle reçoit +20 en Capacité de Combat, en Capacité de Tir et en Force Mentale.</p>",
			"effects":
			[
				{
					"label": "Élite"
				}
			]
		},
		{
			"id": "Ethereal",
			"name": "Éthéré",
			"description": "La créature est immatérielle, ce qui lui permet de passer à travers les objets solides. Elle ne peut être blessée que par les Attaques Magiques.\r\r"
		},
		{
			"id": "Fast",
			"name": "Rapide",
			"description": "La créature se déplace de façon incroyablement rapide. Elle reçoit +1 M et +10 Ag. \r\r"
		},
		{
			"id": "Fear",
			"name": "Peur",
			"description": "<p>La créature inflige une @Compendium[wfrp4e-core.psychologies.Ib2YQYChktDFN93y]{Peur} surnaturelle aux autres dont l'indice est égal à l'Indice.</p>",
			"effects":
			[
				{
					"label": "Peur"
				}
			]
		},
		{
			"id": "Flight",
			"name": "Vol",
			"description": "<p>Quand la créature se Déplace, elle peut voler jusqu'à (X) mètres. Elle ignore alors tous les terrains, obstacles et personnages qui s'interposent. À la fin de son Mouvement, elle décide si elle atterrit ou si elle continue de voler. Elle peut utiliser ce Mouvement pour Charger. Si elle commence son tour en volant, elle doit choisir le Vol pour son Mouvement. Si elle ne peut pas voler, le MJ décide à quelle distance elle tombe.</p>\n        <p>Lorsqu'elle est une cible en vol, il faut mesurer la distance horizontale normalement, puis augmenter la distance de 1. Ainsi, une Longue Distance devient une Distance Extrême, et une créature volante à une Distance Extrême ne peut pas être touchée.</p>\n        <p>Quand elle vole, elle subit une pénalité de -20 à toutes les tentatives de combat à distance, alors qu'elle virevolte dans le ciel.</p>"
		},
		{
			"id": "Frenzy",
			"name": "Frénésie",
			"description": "<p>Vous pouvez, par le biais d'un Test de Force Mentale, vous mettre dans un état psychologique dans lequel vous allez vous surmotiver, mordre votre bouclier, etc. Sur un succès, vous entrez en Frénésie.</p>\n<p>&nbsp;</p>\n<p> Tant que vous êtes en Frénésie, vous êtes immunisé à tous les autres Traits Psychologiques, et sous aucun prétexte vous ne fuirez, ni ne battrez en retraite. A l'inverse, vous devez vous déplacer à votre maximum en direction de l'ennemi le plus proche dans votre Ligne de Vue pour l'attaquer. La seule Action possible est un Test de CC ou un Test d'Athlétisme pour atteindre votre ennemi le plus rapidement possible. De plus, vous pouvez effectuer un Test de CC gratuit chaque round car vous vous lancez à corps perdu dans votre attaque. Enfin, vous gagnez un Bonus de Force de + 1 grâce à votre férocité. Vous restez en Frénésie jusqu'à ce que tous les ennemis dans votre Ligne de Vue soient apaisés ou que vous gagniez l'État Assommé ou lnconscient. Dès que votre Frénésie s'achève, vous gagnez l’État Exténué.</p>"
		},
		{
			"id": "Fury",
			"name": "Rage",
			"description": "La créature peut entrer dans une rage dévorante. Elle peut dépenser tous ses Avantages (minimum 1) pour devenir Haineuse envers ses adversaires en combat rapproché. Elle peut aussi dépenser tous ses Avantages (minimum 3) pour entrer en Frénésie. \r\r"
		},
		{
			"id": "Ghostly Howl",
			"name": "Hurlement fantomatique",
			"description": "Le hurlement de la créature est glaçant, et même capable de tuer ceux qui l’entendent. Pendant son tour, elle peut dépenser tous ses Avantages (minimum 2), pour pouvoir pousser un cri abominable (cela n’utilise pas son Action). Toutes les créatures vivantes (ne possédant pas le trait Mort-vivant) situées à un nombre de mètres égal à l’Initiative de la créature, subissent immédiatement 1d10 Blessures qui ignorent le Bonus d 'Endurance et les PA. Ils doivent réussir un Test de Résistance Accessible (+20) ou gagner l'Etat Brisé. Toutes les cibles affectées gagnent 3 Etats Assourdi. \r\r"
		},
		{
			"id": "Hardy",
			"name": "Dur à cuire",
			"description": "<p>La créature peut encaisser plus de Dégâts que les autres. Augmentez ses points de @Compendium[wfrp4e-core.journal-entries.Ssod4QuBdyMS6F79]{Blessure} d'un nombre égal à son Bonus d'Endurance (appliqué avant tout modificateur de @Compendium[wfrp4e-core.traits.8slW8CJ2oVTxeQ6q]{Taille}).</p>",
			"effects":
			[
				{
					"label": "Dur à cuire"
				}
			]
		},
		{
			"id": "Hatred",
			"name": "Haine",
			"description": "<p>La créature hait profondément la Cible. Voir la @Compendium[wfrp4e-core.psychologies.5hH73j2NgPdsLCZN]{Haine}.</p>"
		},
		{
			"id": "Horns (Feature)",
			"name": "Cornes x (aspect)",
			"description": "La créature possède des cornes ou d'autres appendices acérés. Si ses Cornes représentent un aspect différent, il sera noté entre parenthèses. Quand elle gagne un Avantage pour Charger, elle peut aussi gagner une Attaque gratuite de Cornes, calculée normalement, en utilisant le (X) pour les Dégâts (son Bonus de Force est déjà inclus)."
		},
		{
			"id": "Horns",
			"name": "Cornes",
			"description": "La créature possède des cornes ou d'autres appendices acérés. Si ses Cornes représentent un aspect différent, il sera noté entre parenthèses. Quand elle gagne un Avantage pour Charger, elle peut aussi gagner une Attaque gratuite de Cornes, calculée normalement, en utilisant le (X) pour les Dégâts (son Bonus de Force est déjà inclus)."
		},
		{
			"id": "Hungry",
			"name": "Affamé",
			"description": "<p>La créature est constamment affamée de viande fraîche. Si elle neutralise ou tue un adversaire vivant (ou bien qu'elle tombe sur un corps frais), elle doit réussir un Test de <strong>Force Mentale Intermédiaire (+20)</strong> au risque de devoir en faire son festin, perdant ses prochains action et mouvement.</p>"
		},
		{
			"id": "Immunity",
			"name": "Immunité",
			"description": "La créature est totalement immunisée à un certain type de Dégâts, comme ceux du poison, magiques ou électriques. Tous les Dégâts de ce type, y compris les Dégâts Critiques, sont ignorés."
		},
		{
			"id": "Immunity to Psychology",
			"name": "Immunité Psychologique",
			"description": "<p>Peu importe que la créature soit téméraire, extrêmement stupide ou juste dans le feu de l'action, elle n'a peur de rien. Elle ignore les règles de la Psychologie.</p>"
		},
		{
			"id": "Infected",
			"name": "Infecté",
			"description": "<p>La créature, ou son arme, est porteuse d'une vilaine infection. Si elle fait perdre des points de @Compendium[wfrp4e-core.journal-entries.Ssod4QuBdyMS6F79]{Blessure} à un adversaire vivant, celui-ci doit réussir un test de <strong>@Compendium[wfrp4e-core.skills.CcNJsS4jSwB6Ug1J]{Résistance} Facile (+40)</strong> ou contracter une @Compendium[wfrp4e-core.diseases.kKccDTGzWzSXCBOb]{Plaie purulente}.</p>",
			"effects":
			[
				{
					"label": "Infecté",
					"flags.wfrp4e.script": "if(args.totalWoundLoss > 0)\n  ChatMessage.create(\n  {\n    content: `<strong>Infecté : ${args.actor.name}</strong> doit réussir un Test de <strong>@Compendium[wfrp4e-core.skills.CcNJsS4jSwB6Ug1J]{Résistance} Facile (+40)</strong> ou subir une @Compendium[wfrp4e-core.diseases.kKccDTGzWzSXCBOb]{Plaie purulente}`,\n    whisper: ChatMessage.getWhisperRecipients(\"GM\")\n  })"
				}
			]
		},
		{
			"id": "Infestation",
			"name": "Parasité",
			"description": "La peau de la créature est couverte de puces ou autre vermine similaire. Tous les adversaires subissent une pénalité de -10 pour la toucher en combat au Corps à corps puisque les parasites la recouvrent.\r\r"
		},
		{
			"id": "Leader",
			"name": "Meneur",
			"description": "La créature est un meneur méthodique. Recevez + 10 en Soc et en FM. Remarque : ce Trait ne peut pas être pris si elle possède déjà le Trait Bestial. \r\r"
		},
		{
			"id": "Magic Resistance",
			"name": "Résistance à la Magie",
			"description": "La Magie n’affecte pas la créature autant que les autres. Le DR de tous les Sorts l'affectant est réduit de (X). Ainsi, Résistance à la Magie 2 réduit le DR de 2.\r\r"
		},
		{
			"id": "Magical",
			"name": "Magique",
			"description": "La créature est imprégnée de Magie. Toutes ses Attaques sont des Attaques Magiques.\r\r"
		},
		{
			"id": "Mental Corruption",
			"name": "Corruption mentale",
			"description": "Le Chaos s'est insinué dans l'esprit de la créature ... Faites un lancer sur le Tableau de la Corruption Mentale qui se trouve à la page 185.\r\r"
		},
		{
			"id": "Miracles",
			"name": "Miracles",
			"description": "La créature peut accomplir des Miracles. La divinité concernée est indiquée entre parenthèses."
		},
		{
			"id": "Mutation",
			"name": "Mutation",
			"description": "La créature a la « chance » de posséder une Mutation. Faites un lancer sur le Tableau des Corruptions physiques qui se trouve à la page 184.\r\r"
		},
		{
			"id": "Night Vision",
			"name": "Nyctalope",
			"description": "<p>La créature possède le Talent @Compendium[wfrp4e-core.talents.x0WMGwuQzReXcQrs]{Vision nocturne}.</p>"
		},
		{
			"id": "Painless",
			"name": "Insensible à la douleur",
			"description": "<p>La créature ne ressent pas la douleur ou est capable de l'ignorer. Toutes les pénalités des @Compendium[wfrp4e-core.journal-entries.Ssod4QuBdyMS6F79]{Blessures critiques} qui ne découlent pas d'amputations sont ignorées, bien que les états soient subis normalement.</p>"
		},
		{
			"id": "Petrifying Gaze",
			"name": "Regard pétrifiant",
			"description": "Le regard de la créature peut changer la chair en pierre. Pour son Action, elle peut dépenser autant d'Avantages qu'elle désire (minimum 1) pour lancer son regard. Elle effectue un Test opposé de CT /Initiative, et ajoutez 1 DR par Avantage dépensé. Son adversaire gagne 1 Etat Assommé pour chaque tranche de 2 DR avec lesquels elle gagne. Si c'est de 6 DR ou plus, son adversaire est définitivement changé en pierre.\n        \n  Si son adversaire est un Lanceur de Sorts, le test peut être opposé à la Langue (Magick) au lieu de l'Initiative si des Contre-sorts sont lancés.      "
		},
		{
			"id": "Prejudice",
			"name": "Préjugé",
			"description": "<p>La créature n'aime simplement pas la Cible. Voir le @Compendium[wfrp4e-core.psychologies.klCJX0mNpXYH5AIx]{Préjugé}.</p>"
		},
		{
			"id": "Ranged (Range)",
			"name": "Distance (Portée)",
			"description": "<p>La créature possède une arme à distance. L'arme inflige des dégâts égaux à l'Indice, et la portée en mètres est marquée entre parenthèses.</p>"
		},
		{
			"id": "Rear",
			"name": "Se cabrer",
			"description": "Pour une Action de Mouvement, la créature peut effectuer une Attaque de Piétinement si elle est plus grande que son adversaire. Voir Taille pour plus d'informations.\r\r"
		},
		{
			"id": "Regenerate",
			"name": "Régénération",
			"description": "<p>La créature est capable de guérir à une vitesse extraordinaire, et même de faire repousser ses membres amputés. Au début de chaque manche, s'il lui reste des points de @Compendium[wfrp4e-core.journal-entries.Ssod4QuBdyMS6F79]{Blessure}, elle régénère automatiquement [[/r 1d10]] points de @Compendium[wfrp4e-core.journal-entries.Ssod4QuBdyMS6F79]{Blessure}. Si elle est n'a plus point de @Compendium[wfrp4e-core.journal-entries.Ssod4QuBdyMS6F79]{Blessure}, sur un lancer d'[[/r 1d10]] donnant 8+, elle régénère un seul point de @Compendium[wfrp4e-core.journal-entries.Ssod4QuBdyMS6F79]{Blessure}. Sur un résultat de 10, elle régénère complètement une @Compendium[wfrp4e-core.journal-entries.Ssod4QuBdyMS6F79]{Blessure critique} par la même occasion, retirant tous les états et toutes les pénalités associés à celle-ci. Les points de @Compendium[wfrp4e-core.journal-entries.Ssod4QuBdyMS6F79]{Blessure} perdus par le feu et les @Compendium[wfrp4e-core.journal-entries.Ssod4QuBdyMS6F79]{Blessures critiques} causées par lui ne peuvent pas être régénérées ; ils doivent être notés séparément.</p>"
		},
		{
			"id": "Size",
			"name": "Taille",
			"description": "<p>Ce trait représente les créatures dont la taille diffère du standard du jeu (à savoir la taille humaine approximativement). Il y a sept catégories de Taille, allant de Minuscule à Monstrueuse.</p><table style='width: 100%' border=1><tbody><tr><th style='width: 100px'><p><strong>Taille</strong></p></th><th style='width: auto'><p><strong>Exemples</strong></p></th></tr><tr><td style='width: 100px'><div>Minuscule</div></td><td style='width: auto'><p>Papillon, pigeon, souris</p></td></tr><tr><td style='width: 100px'><div>Très petite</div></td><td style='width: auto'><p>Bébé humain, chat, faucon</p></td></tr><tr><td style='width: 100px'><div>Petite</div></td><td style='width: auto'><p>Enfant humain, halfling, rat géant</p></td></tr><tr><td style='width: 100px'><div>Moyenne</div></td><td style='width: auto'><p>Elfe, humain, nain</p></td></tr><tr><td style='width: 100px'><div>Grande</div></td><td style='width: auto'><p>Cheval, ogre, troll</p></td></tr><tr><td style='width: 100px'><div>Énorme</div></td><td style='width: auto'><p>Griffon, wyverne, manticore</p></td></tr><tr><td style='width: 100px'><div>Monstrueuse</div></td><td style='width: auto'><p>Démon majeur, dragon, géant</p></td></tr></tbody></table><table style='width: 100%' border=1><tbody><tr><td><h1>Utiliser la Taille</h1><p>Si vous souhaitez utiliser la <em>Taille</em> pour agrandir une créature – pour transformer une araignée géante en araignée gigantesque par exemple, augmentez alors la Force et l'Endurance de +10 et réduisez l'Agilité de -5 par augmentation de la catégorie de taille de la créature. Inversez le procédé si vous souhaitez rendre une créature plus petite.</p></td></tr></tbody></table><p><h4>Modificateurs de combat de la Taille</h4><p>Si la créature est plus grande :</p><ul><li>Ses armes gagnent la qualité Dévastateur si la créature est plus grande d'une catégorie, et Percutant si elle est d'au moins deux catégories plus grande.</li><li>Elle multiplie tous les dégâts causés par son nombre de catégories supérieures (donc, 2 catégories = x2, 3 catégories = x3, et ainsi de suite) ; cette multiplication est calculée après l'application de tous les modificateurs.</li><li>Toutes les frappes réussies contre des cibles plus petites activent la règle du @Compendium[wfrp4e-core.journal-entries.UDo3KAMZMBwTaAeK]{Coup fatal}, même si la cible survit.</li><li>Pour chaque catégorie supérieure à Moyenne, une créature compte pour +1 pour déterminer l'infériorité numérique.</li></ul><p>Si la créature est plus petite :</p><ul><li>Elle gagne un bonus de + 10 pour toucher.</li></ul><h4>Se défendre contre les grosses créatures</h4><p>Vous subissez une pénalité de DR -2 pour chaque catégorie supérieure de votre adversaire quand vous utilisez la @Compendium[wfrp4e-core.skills.F8NfBZdVSEIGCMtu]{Mêlée} pour vous défendre lors d'un test opposé. Il est recommandé d'esquiver l'arbre balancé par un géant, plutôt que de le parer.</p><h4>Peur et Terreur</h4><p>Si la créature est perçue comme agressive, elle provoquera la @Compendium[wfrp4e-core.psychologies.Ib2YQYChktDFN93y]{Peur} chez toutes les créatures plus petites qu'elle, et la @Compendium[wfrp4e-core.psychologies.meMkLEwdJIDLxM0B]{Terreur} chez toute créature d'au moins deux catégories plus petite qu'elle. Le niveau de @Compendium[wfrp4e-core.psychologies.Ib2YQYChktDFN93y]{Peur} ou de @Compendium[wfrp4e-core.psychologies.meMkLEwdJIDLxM0B]{Terreur} est égale à la différence de catégories de Taille. Ainsi, si la créature est Grande et que son adversaire est Petit, elle provoque la @Compendium[wfrp4e-core.psychologies.meMkLEwdJIDLxM0B]{Terreur 2}.</p><h4>Mouvement au combat</h4><p>Une créature plus grande ignore la nécessité de se dégager si elle souhaite quitter la mêlée ; à la place, elle bouscule les combattants plus petits hors du chemin, se déplaçant où elle le désire.</p><h4>Force opposée</h4><p>Pendant les tests <strong>opposés de Force</strong> (et équivalents), si l'une des créatures est plus grande d'au moins deux catégories, elle l'emporte automatiquement. Si l'une des créatures est plus grande d'une catégorie, la plus petite créature doit obtenir un critique pour pouvoir contester le jet. Si elle y parvient, le DR est comparé normalement. Tout autre résultat indique que la plus grande créature l'a emporté.</p><h4>Écrasement</h4><p>Les créatures plus grandes que leurs adversaires peuvent effectuer un écrasement comme attaque gratuite, en dépensant 1 point d'@Compendium[wfrp4e-core.journal-entries.sAFW2R7LeDYN5Z5F]{Avantage}, lorsqu'elles frappent du pied au sol ou qu'elles dégagent les adversaires plus petits hors du passage. Cette attaque inflige un nombre de dégâts égal à son Bonus de Force + 0, et utilise la @Compendium[wfrp4e-core.skills.jLyoyqwmBVPjRjhM]{Mêlée (Bagarre)}.</p><h4>Blessures</h4><p>Les créatures plus grandes ont plus de points de @Compendium[wfrp4e-core.journal-entries.Ssod4QuBdyMS6F79]{Blessure}.</p><table style='width: 100%' border=1><tbody><tr><th style='width: 100px'><p><strong>Taille</strong></p></th><th style='width: auto'><p><strong>Blessures</strong></p></th></tr><tr><td style='width: 100px'><div>Minuscule</div></td><td style='width: auto'><p>1</p></td></tr><tr><td style='width: 100px'><div>Très petite</div></td><td style='width: auto'><p><p>Bonus d'Endurance</p></td></tr><tr><td style='width: 100px'><div>Petite</div></td><td style='width: auto'><p>(2 x Bonus d'Endurance) + Bonus de Force Mentale</p></td></tr><tr><td style='width: 100px'><div>Moyenne</div></td><td style='width: auto'><p>Bonus de Force + (2 x Bonus d'Endurance) + Bonus de Force Mentale</p></td></tr><tr><td style='width: 100px'><div>Grande</div></td><td style='width: auto'><p>(Bonus de Force + (2 x Bonus d'Endurance) + Bonus de Force Mentale) x 2</p></td></tr><tr><td style='width: 100px'><div>Énorme</div></td><td style='width: auto'><p>(Bonus de Force + (2 x Bonus d'Endurance) + Bonus de Force Mentale) x 4</p></td></tr><tr><td style='width: 100px'><div>Monstrueuse</div></td><td style='width: auto'><p>(Bonus de Force + (2 x Bonus d'Endurance) + Bonus de Force Mentale) x 8</p></td></tr></tbody></table>"
		},
		{
			"id": "Skittish",
			"name": "Nerveux",
			"description": "<p>La créature est aisément effrayée par la magie ou les bruits forts. Si cela se produit, elle reçoit +3 états @Condition[Brisé].</p>"
		},
		{
			"id": "Spellcaster",
			"name": "Lanceur de sorts",
			"description": "<p>La créature peut lancer des sorts : le Domaine de Magie spécifique est indiqué entre parenthèses.</p>"
		},
		{
			"id": "Stealthy",
			"name": "Furtif",
			"description": "La créature est particulièrement discrète. Ajoutez son bonus d'Agilité au DR de tous ses Tests de Discrétion."
		},
		{
			"id": "Stride",
			"name": "Foulée",
			"description": "<p>La créature effectue de grandes foulées, éventuellement parce qu'il s'agit d'un quadrupède ou bien qu'elle est dotée de jambes particulièrement longues. Multipliez son @Compendium[wfrp4e-core.journal-entries.efIMLdnXk5Y7leLu]{Mouvement de Course} de 1,5 quand elle court.</p>",
			"effects":
			[
				{
					"label": "Foulée"
				}
			]
		},
		{
			"id": "Stupid",
			"name": "Stupide",
			"description": "Bien que n'étant pas entièrement dénuée de lucidité (et ne disposant ainsi pas du Trait Bestial), la créature est Stupide. Si elle se trouve aux côtés d'un allié n'étant, lui, pas Stupide, ce dernier la guide et rien ne se passe. Sinon, elle effectue un test d'intelligence Facile (+40) au début de chaque round. Sur un échec, elle devient confuse, bave ou s'assied, se cure le nez ou toute autre action sans grande utilité, perdant à la fois son Mouvement et son Action pour ce tour."
		},
		{
			"id": "Swamp-strider",
			"name": "Limicole",
			"description": "La créature est à l'aise dans un marais. Elle ne subit pas de pénalité de Mouvement pour se mouvoir sur un terrain marécageux. \r\r"
		},
		{
			"id": "Swarm",
			"name": "Nuée",
			"description": "<p>Les nuées sont constituées d'un grand nombre de créatures identiques agissant comme une seule, ignorant les règles de Psychologie (voir page 190), toutes les règles du Trait de créature Taille, et celles d'Engagement en utilisant son Mouvement. Si une nuée attaque avec succès un opposant, elle active la règle de Frappe mortelle (même si l'opposant n'est pas tué, voir page 160). Tous les opposants Engagés avec une nuée perdent automatiquement 1 Point de Blessure à la fin de chaque round, car la nuée submerge tout ce qui se trouve à proximité. La nuée possède cinq fois plus de Points de Blessure que l'une des créatures type qui la composent et gagne + 10 en CC. Toutes les tentatives de tirer sur la nuée obtient un Bonus de +40 au toucher. La nuée ignore toutes les règles du Trait de créature Taille.</p>"
		},
		{
			"id": "Tail Attack",
			"name": "Attaque caudale",
			"description": "La queue de la créature est capable de balayer les ennemis.  \n                \n             À son tour, elle peut effectuer une Attaque gratuite en dépensant 1 Avantage. La queue inflige (X) Dégâts, qui incluent déjà son Bonus de Force. Les adversaires avec une plus petite Taille que la créature, qui perdent des Points de Blessure par cette attaque, subissent également l'Etat À Terre."
		},
		{
			"id": "Territorial",
			"name": "Territorial",
			"description": "<p>Cette créature protège une zone ou une région particulière. Elle combat jusqu'à la mort pour la défendre et ne poursuit normalement pas les ennemis qui s'en enfuient.</p>"
		},
		{
			"id": "Terror",
			"name": "Terreur",
			"description": "<p>Certaines créatures sont si profondément perturbantes qu'elles parviennent à provoquer une terreur glaçante auprès de leurs adversaires. Lorsque vous rencontrez pour la première fois une créature qui inspire la Terreur, effectuez un Test de Psychologie. Sur un succès, vous ne subissez aucun effet supplémentaire à cause de la Terreur. Sur un échec, vous gagnez autant l'Etats Brisé que l'Indice de Terreur de la créature, auquel vous rajoutez les DR inférieurs à 0. </p>\n<p>&nbsp;</p>\n<p>Une fois ce test de Psychologie effectué, la créature cause la Peur, avec un Indice de Peur équivalent à son Indice de Terreur.</p>"
		},
		{
			"id": "Tongue Attack (Range)",
			"name": "Langue préhensible (Portée)",
			"description": "<p>La langue préhensile de la créature peut s'enrouler autour d'une proie, l'entraînant vers une fin horrible. </p>\n                <ul>\n                <li>Pendant son tour, elle peut effectuer une Attaque gratuite en dépensant 1 Avantage. </li>\n                <li>This is a ranged attack that does Damage equal to its Rating (the range is in brackets).</li>\n                <li>C'est une Attaque à distance qui inflige (X) Dégâts (la distance est indiquée entre parenthèses). Si l'Attaque touche, son adversaire reçoit 1 État Empêtré et, s'il a une Taille inférieure, il est entraîné vers la créature.\n                <ul>\n                <li>Elle peut ensuite choisir de :\n                <ul>\n                <li>Laisser partir la cible.</li>\n                <li>Effectuer une Attaque gratuite en utilisant son Trait Arme.</li>\n                <li>Conserver la cible enroulée dans sa langue, avec le démarrage d'une Empoignade (voir page 163).</li>\n                </ul>\n                </li>\n                </ul>\n                </li>\n                </ul>"
		},
		{
			"id": "Tongue Attack",
			"name": "Langue préhensible",
			"description": "<p>La langue préhensile de la créature peut s'enrouler autour d'une proie, l'entraînant vers une fin horrible. </p>\n                <ul>\n                <li>Pendant son tour, elle peut effectuer une Attaque gratuite en dépensant 1 Avantage. </li>\n                <li>This is a ranged attack that does Damage equal to its Rating (the range is in brackets).</li>\n                <li>C'est une Attaque à distance qui inflige (X) Dégâts (la distance est indiquée entre parenthèses). Si l'Attaque touche, son adversaire reçoit 1 État Empêtré et, s'il a une Taille inférieure, il est entraîné vers la créature.\n                <ul>\n                <li>Elle peut ensuite choisir de :\n                <ul>\n                <li>Laisser partir la cible.</li>\n                <li>Effectuer une Attaque gratuite en utilisant son Trait Arme.</li>\n                <li>Conserver la cible enroulée dans sa langue, avec le démarrage d'une Empoignade (voir page 163).</li>\n                </ul>\n                </li>\n                </ul>\n                </li>\n                </ul>"
		},
		{
			"id": "Tough",
			"name": "Coriace",
			"description": "La créature est plus résistante aux Dégâts que la normale, et peu susceptible de reculer. Elle reçoit + 10 en E et FM.\r\r"
		},
		{
			"id": "Tracker",
			"name": "Pisteur",
			"description": "<p>Les pisteurs se montrent habiles quand il s'agit de suivre leur proie, généralement grâce à l'ouïe ou à l'odorat. Ils ajoutent un DR égal à leur Bonus d'Initiative à tous les Tests de @Compendium[wfrp4e-core.skills.rt2rGSwFDCDHPh0A]{Pistage}.</p>",
			"effects":
			[
				{
					"label": "Pisteur",
					"flags.wfrp4e.script": "if(args.type == \"skill\" &&  args.item.name.includes(\"Pistage\"))\n{\n  let sl = this.actor.characteristics.i.bonus\n  args.prefillModifiers.slBonus += sl;\n}"
				}
			]
		},
		{
			"id": "Trained",
			"name": "Dressé",
			"description": "<p>Ce Trait concerne les animaux ayant été dressés par le biais de la Compétence @Compendium[wfrp4e-core.skills.uZpeJ8P0g10UBRdE]{Dressage}. Les capacités apprises par l'animal sont marquées entre parenthèses. Vous êtes libre de créer vos propres capacités.</p><p><strong>Brisé</strong> : l'animal est dressé pour ignorer son Trait <em>@Compendium[wfrp4e-core.traits.AGcJl5rHjkyIQBPP]{Bestial}</em>. Elle reçoit +2d10 en Sociabilité.</p><p><strong>Divertir</strong> : l'animal est dressé pour divertir les autres. Elle ajoute un bonus de +10 aux Tests de @Compendium[wfrp4e-core.skills.0CwV96kTDRF0jUhk]{Divertissement}, @Compendium[wfrp4e-core.skills.bBLK2hznjPlby6Jb]{Musique} et @Compendium[wfrp4e-core.skills.HO8vIjGTHjmenIaV]{Représentation} appropriés.</p><p><strong>Foyer</strong> : l'animal est dressé pour revenir chez lui s'il est relâché ou perdu.</p><p><strong>Garder</strong> : l'animal est dressé pour rester à la même place ou patrouiller aux alentours comme un garde, obtenant ainsi le Trait <em>@Compendium[wfrp4e-core.traits.JIAe7i7dqTQBu4do]{Territorial}</em>.</p><p><strong>Guerre</strong> : l'animal est dressé pour la guerre, obtenant +10 en Capacité de Combat. Elle peut également ignorer son Trait <em>@Compendium[wfrp4e-core.traits.IPKRMGry6WotuS1G]{Nerveux}</em> pour les grands bruits.</p><p><strong>Magie</strong> : l'animal est dressé pour ignorer son Trait <em>@Compendium[wfrp4e-core.traits.IPKRMGry6WotuS1G]{Nerveux}</em> concernant la magie, ce qui est nécessaire à la plupart des chevaux utilisés par les magiciens.</p><p><strong>Monture</strong> : l'animal est dressé pour accepter un cavalier. Certaines créatures sont particulièrement belliqueuses et n'accepteront jamais un cavalier dépourvu de la Compétence adéquate. Ainsi, pour chevaucher un griffon, vous avez besoin de la Compétence @Compendium[wfrp4e-core.skills.dfuN0EpNQS6eqCxZ]{Équitation (Griffon)}.</p><p><strong>Rapporter</strong> : l'animal est dressé pour rapporter. Cette capacité est normalement réservée aux chiens et autres animaux semblables.</p><p><strong>Trait</strong> : l'animal est dressé pour tirer une coche, une charrette, une charrue, un boguet ou d'autres véhicules similaires.</p>"
		},
		{
			"id": "Undead",
			"name": "Mort-vivant",
			"description": "<p>Les Morts-vivants ne sont ni vivants ni morts, signifiant qu'ils ne sont pas dépendants des conditions indispensables à la vie : l'air, la nourriture, l'eau… Ce trait intervient généralement quand des sorts, des miracles ou d'autres capacités affectent seulement les Morts-vivants.</p>"
		},
		{
			"id": "Unstable",
			"name": "Instable",
			"description": "<p>Le corpus de la créature est maintenu par d'ignobles sortilèges fondamentalement instables dans le plan matériel. Quand, à l'issue d'une manche, elle est engagée avec au moins un adversaire possédant un @Compendium[wfrp4e-core.journal-entries.sAFW2R7LeDYN5Z5F]{Avantage} supérieur au sien, la créature est repoussée et les sortilèges maintenant son intégrité s'affaiblissent. Elle perd un nombre de points de @Compendium[wfrp4e-core.journal-entries.Ssod4QuBdyMS6F79]{Blessure} égal à la différence entre son @Compendium[wfrp4e-core.journal-entries.sAFW2R7LeDYN5Z5F]{Avantage} et celui le plus élevé parmi les adversaires engagés avec elle. Ainsi, si la créature a 1 point d'@Compendium[wfrp4e-core.journal-entries.sAFW2R7LeDYN5Z5F]{Avantage} et que son adversaire en a 3, elle perd 2 points de Blessure. Si la créature perd tous ses points de Blessure, les sortilèges qui la maintiennent en place disparaissent, provoquant sa \"mort\".</p>"
		},
		{
			"id": "Vampiric",
			"name": "Vampirique",
			"description": "La créature se nourrit de sang et y puise une grande force physique. Chaque fois qu'elle réussit une Attaque de Morsure contre un adversaire approprié, elle récupère autant de Points de Blessure que son adversaire en perd. Boire du sang de cette façon est la seule manière pour elle de se soigner.\r\r"
		},
		{
			"id": "Venom",
			"name": "Venin",
			"description": "<p>Les attaques de la créature sont empoissonnées ou venimeuses. Quand elle fait perdre des points de @Compendium[wfrp4e-core.journal-entries.Ssod4QuBdyMS6F79]{Blessure}, son adversaire prend un état @Condition[Empoisonné]. Si aucune Difficulté n'est marquée pour résister au Venin, elle est considérée comme Exigeante.</p>",
			"effects":
			[
				{
					"label": "Venin"
				}
			]
		},
		{
			"id": "Vomit",
			"name": "Vomissement",
			"description": "<p>La créature peut vomir un flot de corruption corrosive, aspergeant son adversaire d'immondices à moitié digérées. </p>\n<ul>\n<li>Pendant son tour, au prix de 3 Avantages, elle peut activer son Vomissement comme une Attaque gratuite. Elle choisit 1 cible qu'elle peut voir, située à une distance en mètres égale à son Bonus d'Endurance, et lui vomit dessus. Toutes les cibles à moins de deux mètres sont également touchées. </li>\n<li>La créature effectue un Test opposé de CT /Esquive contre toutes les cibles affectées (un jet opposé pour chaque cible). \n<ul>\n<li>Le Test est généralement Facile (+40) pour elle à cause de la distance rapprochée, et Intermédiaire (+0) pour ses adversaires. </li>\n</ul>\n</li>\n<li>Toutes les cibles qui échouent subissent une somme de Dégâts d'Arme égale à son Bonus d'Endurance +4 et reçoivent l'État Assommé. </li>\n<li>Toutes les Armures et les Armes portées par les cibles affectées subissent 1 Dégât à cause de l'acidité corrosive du vomissement.</li>\n</ul>"
		},
		{
			"id": "Wallcrawler",
			"name": "Grimpant",
			"description": "La créature peut facilement escalader les surfaces verticales et même parcourir les plafonds, prête à fondre sur les proies imprudentes. Elle avance à sa vitesse maximale de Mouvement sur toutes les surfaces appropriées et réussit automatiquement tous ses tests d'Escalade. \r\r"
		},
		{
			"id": "Ward",
			"name": "Protection",
			"description": "Parce qu'elles sont magiques, bénéficient d'un talisman particulier ou sont juste chanceuses, certaines créatures semblent éviter les coups. Lancer 1d10 après chaque coup reçu. En cas de résultat supérieur ou égal, le coup est ignoré même s’il s’agit d’un Critique."
		},
		{
			"id": "Weapon",
			"name": "Arme",
			"description": "<p>La créature porte une arme de mêlée, ou utilise ses dents, ses griffes ou équivalent au combat.</p><p>L'arme inflige des dégâts égaux à son Indice, lequel <em>inclue déjà le Bonus de Force de la créature</em>. En général, celui-ci sera de 4 + son Bonus de Force (représentant une @Compendium[wfrp4e-core.trappings.1zaqojk0Oq1m8vYv]{Arme de poing}).</p>"
		},
		{
			"id": "Web",
			"name": "Toile",
			"description": "<p>La créature peut créer une toile pour attraper les ennemis imprudents. Chaque fois qu'elle réussit à toucher, son adversaire gagne 1 État Empêtré, avec une Forcce de (X). Voir page 168</p>\n<p>&nbsp;</p>"
		}	
	]
}
