{
	"label": "Carrières",
	"mapping":
	{
		"class":
		{
			"path": "data.class.value",
			"converter": "genericLocalization"
		},

		"careergroup": "data.careergroup.value",
		"skills": "data.skills",
		"incomeSkill": "data.incomeSkill",

		"talents":
		{
			"path": "data.talents",
			"converter": "talentConverter"
		},

		"trappings": "data.trappings"
	},
	"entries":
	[
		{
			"id": "Abbess",
			"name": "Abbesse",
			"description": "<p>@Compendium[wfrp4e-core.career-descriptions.bE8g67fjVAE6R7Wx]{Nonne}</p>",
			"careergroup": "Nonne",
			"skills": ["Art (Calligraphie)", "Calme", "Divertissement (Narration)", "Prière", "Ragot", "Résistance", "Savoir (Théologie)", "Soin", "Charisme", "Mêlée (Au choix)", "Métier (Brasseur)", "Métier (Herboriste)", "Métier (Vigneron)", "Recherche", "Commandement", "Perception", "Savoir (Local)", "Savoir (Politique)"],
			"incomeSkill": [6],
			"trappings": ["Abbaye", "Bibliothèque (Théologie)"]
		},
		{
			"id": "Advisor",
			"name": "Conseiller",
			"description": "<p>@Compendium[wfrp4e-core.career-descriptions.J8ejrXE0zWMjNsZd]{Conseiller}</p>",
			"careergroup": "Conseiller",
			"skills": ["Langue (Classique)", "Marchandage", "Perception", "Ragot", "Résistance", "Résistance à  l'alcool", "Savoir (Politique)", "Subornation", "Calme", "Charisme", "Évaluation", "Intuition", "Pari", "Savoir (Local)"],
			"incomeSkill": [6],
			"trappings": ["Livrée"]
		},
		{
			"id": "Agent",
			"name": "Agent",
			"description": "<p>@Compendium[wfrp4e-core.career-descriptions.dWLxT0zRnDFbwTKZ]{Espion}</p>",
			"careergroup": "Espion",
			"skills": ["Calme", "Charisme", "Discrétion (Au choix)", "Marchandage", "Pari", "Ragot", "Perception", "Subornation", "Divertissement (Interprétation)", "Escalade", "Escamotage", "Intuition", "Mêlée (Basique)", "Symbole secrets (Au choix)", "Commandement", "Dressage (Pigeon)", "Langue (Au choix)", "Soin des animaux"],
			"incomeSkill": [5],
			"trappings": ["Livre (Cryptographie)", "Pigeons voyageurs", "Plume et encre", "Réseau d'espions et d'informateurs"]
		},
		{
			"id": "Agitator",
			"name": "Agitateur",
			"description": "<p>@Compendium[wfrp4e-core.career-descriptions.yDGBs92ko6rUyoTe]{Agitateur}</p>",
			"careergroup": "Agitateur",
			"skills": ["Art (Écriture)", "Charisme", "Marchandage", "Métier (Imprimeur)", "Ragot", "Résistance à l'alcool", "Savoir (Politique)", "Subornation", "Calme", "Commandement", "Divertissement (Narration)", "Esquive", "Intuition", "Pari"],
			"incomeSkill": [1],
			"trappings": ["Veste de cuir"]
		},
		{
			"id": "Aide",
			"name": "Assistant",
			"description": "<p>@Compendium[wfrp4e-core.career-descriptions.J8ejrXE0zWMjNsZd]{Conseiller}</p>",
			"careergroup": "Conseiller",
			"skills": ["Langue (Classique)", "Marchandage", "Perception", "Ragot", "Résistance", "Résistance à  l'alcool", "Savoir (Politique)", "Subornation"],
			"incomeSkill": [6],
			"trappings": ["Nécessaire d'écriture"]
		},
		{
			"id": "Ambassador",
			"name": "Ambassadeur",
			"description": "<p>@Compendium[wfrp4e-core.career-descriptions.B0zxjP3KbZag5Y79]{Émissaire}</p>",
			"careergroup": "Émissaire",
			"skills": ["Athlétisme", "Canotage", "Charisme", "Conduite", "Équitation (Cheval)", "Esquive", "Intuition", "Résistance", "Art (Écriture)", "Calme", "Marchandage", "Ragot", "Savoir (Politique)", "Subornation", "Commandement", "Intimidation", "Langue (Au choix)", "Navigation", "Langue (Au choix)", "Savoir (Au choix)"],
			"incomeSkill": [2],
			"trappings": ["Assistant", "Héraut", "Personnel de diplomate", "Tenue de cour de la meilleure qualité"]
		},
		{
			"id": "Apothecary",
			"name": "Apothicaire",
			"description": "<p>@Compendium[wfrp4e-core.career-descriptions.B0zxjP3KbZag5Y79]{Apothicaire}</p>",
			"careergroup": "Apothicaire",
			"skills": ["Langue (Classique)", "Métier (Apothicaire)", "Métier (Empoisonneur)", "Résistance à l'alcool", "Savoir (Chimie)", "Savoir (Médecine)", "Savoir (Plantes)", "Soin", "Charisme", "Langue (Guilde)", "Marchandage", "Perception", "Ragot", "Savoir (Science)"],
			"incomeSkill": [1],
			"trappings": ["Licence de guilde", "Outils de métier (Apothicaire)"]
		},		
		{
			"id": "Apothecary's Apprentice",
			"name": "Apprenti apothicaire",
			"description": "<p>@Compendium[wfrp4e-core.career-descriptions.B0zxjP3KbZag5Y79]{Apothicaire}</p>",
			"careergroup": "Apothicaire",
			"skills": ["Langue (Classique)", "Métier (Apothicaire)", "Métier (Empoisonneur)", "Résistance à l'alcool", "Savoir (Chimie)", "Savoir (Médecine)", "Savoir (Plantes)", "Soin"],
			"incomeSkill": [1],
			"trappings": ["Gilet de cuir", "Livre (Vierge)", "Mortier et pilon", "Potion de soin"]
		},
		{
			"id": "Apothecary-General",
			"name": "Apothicaire éminent",
			"description": "<p>@Compendium[wfrp4e-core.career-descriptions.B0zxjP3KbZag5Y79]{Apothicaire}</p>",
			"careergroup": "Apothicaire",
			"skills": ["Langue (Classique)", "Métier (Apothicaire)", "Métier (Empoisonneur)", "Résistance à l'alcool", "Savoir (Chimie)", "Savoir (Médecine)", "Savoir (Plantes)", "Soin", "Charisme", "Langue (Guilde)", "Marchandage", "Perception", "Ragot", "Savoir (Science)", "Commandement", "Intuition", "Recherche", "Symboles secrets (Guilde)", "Équitation (Cheval)", "Intimidation"],
			"incomeSkill": [1],
			"trappings": ["Bons de commande", "Grand atelier (Apothicaire)"]
		},
		{
			"id": "Apprentice Artisan",
			"name": "Apprenti artisan",
			"description": "<p>@Compendium[wfrp4e-core.career-descriptions.AlriWm9KtKnDAMw1]{Artisan}</p>",
			"careergroup": "Artisan",
			"skills": ["Athlétisme", "Calme", "Discrétion (Urbaine)", "Évaluation", "Esquive", "Métier (Au choix)", "Résistance", "Résistance à l'alcool"],
			"incomeSkill": [5],
			"trappings": ["1d10 chiffons", "Craie", "Gilet de cuir"]
		},
		{
			"id": "Apprentice Artist",
			"name": "Apprenti artiste",
			"description": "<p>@Compendium[wfrp4e-core.career-descriptions.rjUjdQrWHWazjkRC]{Artiste}</p>",
			"careergroup": "Artisan",
			"skills": ["Art (Au choix)", "Calme", "Discrétion (Urbaine)", "Évaluation", "Perception", "Ragot", "Résistance", "Résistance à l'alcool"],
			"incomeSkill": [0],
			"trappings": ["Ciseau ou pinceau ou plume d'oie"]
		},
		{
			"id": "Artisan",
			"name": "Artisan",
			"description": "<p>@Compendium[wfrp4e-core.career-descriptions.AlriWm9KtKnDAMw1]{Artisan}</p>",
			"careergroup": "Artisan",
			"skills": ["Athlétisme", "Calme", "Discrétion (Urbaine)", "Évaluation", "Esquive", "Métier (Au choix)", "Résistance", "Résistance à l'alcool", "Charisme", "Langue (Guilde)", "Marchandage", "Perception", "Ragot", "Savoir (Local)"],
			"incomeSkill": [5],
			"trappings": ["Licence de guilde", "Outils de métier (Au choix)"]
		},
		{
			"id": "Artist",
			"name": "Artiste",
			"description": "<p>@Compendium[wfrp4e-core.career-descriptions.rjUjdQrWHWazjkRC]{Artiste}</p>",
			"careergroup": "Artisan",
			"skills": ["Art (Au choix)", "Calme", "Discrétion (Urbaine)", "Évaluation", "Perception", "Ragot", "Résistance", "Résistance à l'alcool", "Escalade", "Intuition", "Langue (Classique)", "Marchandage", "Métier (Artiste)", "Pari"],
			"incomeSkill": [0],
			"trappings": ["Besace contenant les outils de métier (Artiste)"]
		},
		{
			"id": "Assassin",
			"name": "Assassin",
			"description": "<p>@Compendium[wfrp4e-core.career-descriptions.mlLVNBKIUnonqka2]{Spadassin}</p>",
			"careergroup": "Spadassin",
			"skills": ["Athlétisme", "Divertissement (Raillerie)", "Esquive", "Intimidation", "Marchandage", "Mêlée (Au choix)", "Ragot", "Résistance", "Charisme", "Équitation (Cheval)", "Intuition", "Mêlée (Basique)", "Perception", "Subornation", "Calme", "Distance (Lancer)", "Escalade", "Navigation", "Distance (Arbalète)", "Divertissement (Interprétation)"],
			"incomeSkill": [5],
			"trappings": ["Arbalète avec 10 carreaux", "Nécessaire de déguisement"]
		},
		{
			"id": "Attendant",
			"name": "Suivant",
			"description": "<p>@Compendium[wfrp4e-core.career-descriptions.g12yhcU74qsRKxXX]{Serviteur}</p>",
			"careergroup": "Serviteur",
			"skills": ["Athlétisme", "Conduite", "Discrétion (Au choix)", "Escalade", "Esquive", "Intuition", "Perception", "Résistance", "Évaluation", "Marchandage", "Pari", "Ragot", "Résistance à l'alcool", "Soin des animaux", "Calme", "Charisme", "Intimidation", "Savoir (Local)"],
			"incomeSkill": [7],
			"trappings": ["Briquet d'amadou", "Huile à lampe", "Lampe-tempête", "Livrée de qualité"]
		},
		{
			"id": "Bailiff",
			"name": "Bailli",
			"description": "<p>@Compendium[wfrp4e-core.career-descriptions.WbjmnVlyJ9VP2nt4]{Bailli}</p>",
			"careergroup": "Bailli",
			"skills": ["Calme", "Esquive", "Intimidation", "Marchandage", "Mêlée (Basique)", "Perception", "Ragot", "Résistance", "Charisme", "Commandement", "Évaluation", "Intuition", "Savoir (Local)", "Subornation"],
			"incomeSkill": [2],
			"trappings": ["3 collecteurs de taxes", "Veste de cuir"]
		},
		{
			"id": "Bandit King",
			"name": "Roi des bandits",
			"description": "<p>@Compendium[wfrp4e-core.career-descriptions.mOljt11dxZENtmoR]{Hors-la-loi}</p>",
			"careergroup": "Hors-la-loi",
			"skills": ["Athlétisme", "Calme", "Intimidation", "Mêlée (Basique)", "Pari", "Résistance", "Résistance à l'alcool", "Survie en extérieur", "Discrétion (Rural)", "Distance (Arc)", "Esquive", "Perception", "Savoir (Local)", "Soin", "Commandement", "Équitation (Cheval)", "Intuition", "Ragot", "Charisme", "Savoir (Empire)"],
			"incomeSkill": [2],
			"trappings": ["\"Fief\" de Chefs hors-la-loi", "Repaire"]
		},
		{
			"id": "Barge Master",
			"name": "Capitaine de barge",
			"description": "<p>@Compendium[wfrp4e-core.career-descriptions.14nKRAT6nMCMGSUf]{Batelier}</p>",
			"careergroup": "Batelier",
			"skills": ["Canotage", "Esquive", "Mêlée (Bagarre)", "Natation", "Pilotage", "Ragot", "Résistance", "Résistance à l'alcool", "Athlétisme", "Divertissement (Narration)", "Intuition", "Marchandage", "Perception", "Savoir (Rivières)", "Divertissement (Chant)", "Escalade", "Métier (Constructeur de bateaux)", "Soin", "Commandement", "Navigation"],
			"incomeSkill": [4],
			"trappings": ["Bateau fluvial et équipage", "Chapeau"]
		},
		{
			"id": "Bargeswain",
			"name": "Maître de barge",
			"description": "<p>@Compendium[wfrp4e-core.career-descriptions.14nKRAT6nMCMGSUf]{Batelier}</p>",
			"careergroup": "Batelier",
			"skills": ["Canotage", "Esquive", "Mêlée (Bagarre)", "Natation", "Pilotage", "Ragot", "Résistance", "Résistance à l'alcool", "Athlétisme", "Divertissement (Narration)", "Intuition", "Marchandage", "Perception", "Savoir (Rivières)", "Divertissement (Chant)", "Escalade", "Métier (Constructeur de bateaux)", "Soin"],
			"incomeSkill": [4],
			"trappings": ["Outils de métier (Charpentier)", "Sac à dos"]
		},
		{
			"id": "Barrister",
			"name": "Maître du barreau",
			"description": "<p>@Compendium[wfrp4e-core.career-descriptions.GhqPa2iwEdc4Dokc]{Juriste}</p>",
			"careergroup": "Juriste",
			"skills": ["Langue (Classique)", "Marchandage", "Perception", "Recherche", "Résistance", "Résistance à l'alcool", "Savoir (Loi)", "Savoir (Théologie)", "Charisme", "Intuition", "Langue (Guilde)", "Ragot", "Subornation", "Symboles secrets (Guilde)", "Art (Écriture)", "Divertissement (Discours)", "Intimidation", "Savoir (Au choix)"],
			"incomeSkill": [6],
			"trappings": ["Assistant (Étudiant ou serviteur)", "Bureau"]
		},
		{
			"id": "Bawd",
			"name": "Entremetteur",
			"description": "<p>@Compendium[wfrp4e-core.career-descriptions.MY4aFbQL5T9znCUd]{Entremetteur}</p>",
			"careergroup": "Entremetteur",
			"skills": ["Charisme", "Divertissement (Au choix)", "Intimidation", "Marchandage", "Pari", "Ragot", "Résistance à l'alcool", "Subornation", "Esquive", "Intuition", "Mêlée (Basique)", "Perception", "Résistance", "Savoir (Local)"],
			"incomeSkill": [0],
			"trappings": ["Dose de mystracine", "Vêtements de qualité"]
		},
		{
			"id": "Beggar",
			"name": "Mendiant",
			"description": "<p>@Compendium[wfrp4e-core.career-descriptions.djOQaw7iRfec9UEj]{Mendiant}</p>",
			"careergroup": "Mendiant",
			"skills": ["Athlétisme", "Calme", "Charisme", "Divertissement (Urbaine)", "Esquive", "Intuition", "Résistance", "Résistance à l'alcool", "Divertissement (Au choix)", "Divertissement (Interpréation)", "Escamotage", "Marchandage", "Perception", "Ragot"],
			"incomeSkill": [2],
			"trappings": ["Béquille", "Bol"]
		},
		{
			"id": "Beggar King",
			"name": "Roi des mendiants",
			"description": "<p>@Compendium[wfrp4e-core.career-descriptions.djOQaw7iRfec9UEj]{Mendiant}</p>",
			"careergroup": "Mendiant",
			"skills": ["Athlétisme", "Calme", "Charisme", "Divertissement (Urbaine)", "Esquive", "Intuition", "Résistance", "Résistance à l'alcool", "Divertissement (Au choix)", "Divertissement (Interpréation)", "Escamotage", "Marchandage", "Perception", "Ragot", "Commandement", "Emprise sur les animaux", "Savoir (Local)", "Symboles secrets (Vagabond)", "Intimidation", "Subornation"],
			"incomeSkill": [2],
			"trappings": ["Grande suite de mendiants", "Repaire"]
		},
		{
			"id": "Black Marketeer",
			"name": "Trafiquant",
			"description": "<p>@Compendium[wfrp4e-core.career-descriptions.lbbddfm36XMb8SYg]{Receleur}</p>",
			"careergroup": "Receleur",
			"skills": ["Charisme", "Esquive", "Évaluation", "Marchandage", "Mêlée (Basique)", "Pari", "Ragot", "Résistance à l'alcool", "Calme", "Intimidation", "Intuition", "Métier (Graveur)", "Perception", "Symboles secrets (Voleur)", "Divertissement (Narration)", "Savoir (Art)", "Savoir (Local)", "Subornation", "Recherche", "Savoir (Héraldique)"],
			"incomeSkill": [2],
			"trappings": ["Entrepôt", "Homme de main", "Réseau d'informateurs"]
		},
		{
			"id": "Boat-hand",
			"name": "Canotier",
			"description": "<p>@Compendium[wfrp4e-core.career-descriptions.14nKRAT6nMCMGSUf]{Batelier}</p>",
			"careergroup": "Batelier",
			"skills": ["Canotage", "Esquive", "Mêlée (Bagarre)", "Natation", "Pilotage", "Ragot", "Résistance", "Résistance à l'alcool"],
			"incomeSkill": [4],
			"trappings": ["Arme de poing (Crochet de bateau)", "Perche", "Veste de cuir"]
		},
		{
			"id": "Boatman",
			"name": "Batelier",
			"description": "<p>@Compendium[wfrp4e-core.career-descriptions.14nKRAT6nMCMGSUf]{Batelier}</p>",
			"careergroup": "Batelier",
			"skills": ["Canotage", "Esquive", "Mêlée (Bagarre)", "Natation", "Pilotage", "Ragot", "Résistance", "Résistance à l'alcool", "Athlétisme", "Divertissement (Narration)", "Intuition", "Marchandage", "Perception", "Savoir (Rivières)"],
			"incomeSkill": [4],
			"trappings": ["Chaloupe", "Corde"]
		},
		{
			"id": "Boatswain",
			"name": "Maître de navire",
			"description": "<p>@Compendium[wfrp4e-core.career-descriptions.wu6aG1XPdzvpiLcR]{Marin}</p>",
			"careergroup": "Marin",
			"skills": ["Canotage", "Escalade", "Mêlée (Bagarre)", "Natation", "Pari", "Pilotage", "Ragot", "Résistance à l'alcool", "Athlétisme", "Esquive", "Divertissement (Chant)", "Langue (Au choix)", "Mêlée (Basique)", "Résistance", "Calme", "Commandement", "Perception", "Métier (Charpentier)"],
			"incomeSkill": [5],
			"trappings": ["Outils de la profession (Charpentier)"]
		},
		{
			"id": "Body Snatcher",
			"name": "Détrousseur de cadavres",
			"description": "<p>@Compendium[wfrp4e-core.career-descriptions.W2Ovj3ec7eqZUuuv]{Pilleur de tombes}</p>",
			"careergroup": "Pilleur de tombes",
			"skills": ["Calme", "Escalade", "Esquive", "Discrétion (Au choix)", "Intuition", "Perception", "Ragot", "Résistance"],
			"incomeSkill": [3],
			"trappings": ["Bâche", "Cape à capuche", "Charrette à bras", "Pied-de-biche"]
		},
		{
			"id": "Bounty Hunter",
			"name": "Chasseur de primes",
			"description": "<p>@Compendium[wfrp4e-core.career-descriptions.bsQN8B1mtZhl2WRu]{Chasseur de primes}</p>",
			"careergroup": "Chasseur de primes",
			"skills": ["Charisme", "Intuition", "Marchandage", "Mêlée (Basique)", "Perception", "Ragot", "Subornation", "Survie en extérieur", "Athlétisme", "Distance (Arbalète)", "Distance (Immobilisation)", "Intimidation", "Pistage", "Résistance"],
			"incomeSkill": [3],
			"trappings": ["Arbalète avec 10 carreaux", "Calotte de cuir", "Filet", "Mandat", "Menottes"]
		},
		{
			"id": "Bounty Hunter General",
			"name": "Chasseur de primes vétéran",
			"description": "<p>@Compendium[wfrp4e-core.career-descriptions.bsQN8B1mtZhl2WRu]{Chasseur de primes}</p>",
			"careergroup": "Chasseur de primes",
			"skills": ["Charisme", "Intuition", "Marchandage", "Mêlée (Basique)", "Perception", "Ragot", "Subornation", "Survie en extérieur", "Athlétisme", "Distance (Arbalète)", "Distance (Immobilisation)", "Intimidation", "Pistage", "Résistance", "Équitation (Cheval)", "Escalade", "Natation", "Soin des animaux", "Conduite", "Savoir (Loi)"],
			"incomeSkill": [3],
			"trappings": ["Cotte de mailles", "Cheval de trait et chariot", "4 paires de menottes"]
		},
		{
			"id": "Braggart",
			"name": "Matamore",
			"description": "<p>@Compendium[wfrp4e-core.career-descriptions.mlLVNBKIUnonqka2]{Spadassin}</p>",
			"careergroup": "Spadassin",
			"skills": ["Athlétisme", "Divertissement (Raillerie)", "Esquive", "Intimidation", "Marchandage", "Mêlée (Au choix)", "Ragot", "Résistance"],
			"incomeSkill": [5],
			"trappings": ["Capuche ou masque", "Coups-de-poing", "Veste de cuir"]
		},
		{
			"id": "Brigand",
			"name": "Bandit",
			"description": "<p>@Compendium[wfrp4e-core.career-descriptions.mOljt11dxZENtmoR]{Hors-la-loi}</p>",
			"careergroup": "Hors-la-loi",
			"skills": ["Athlétisme", "Calme", "Intimidation", "Mêlée (Basique)", "Pari", "Résistance", "Résistance à l'alcool", "Survie en extérieur"],
			"incomeSkill": [2],
			"trappings": ["Arme de poing", "Briquet d'amadou", "Gilet de cuir", "Sac de couchage"]
		},
		{
			"id": "Broker",
			"name": "Courtier",
			"description": "<p>@Compendium[wfrp4e-core.career-descriptions.lbbddfm36XMb8SYg]{Receleur}</p>",
			"careergroup": "Receleur",
			"skills": ["Charisme", "Esquive", "Évaluation", "Marchandage", "Mêlée (Basique)", "Pari", "Ragot", "Résistance à l'alcool"],
			"incomeSkill": [2],
			"trappings": ["Arme de poing", "Biens volés valant 3d10 pistoles"]
		},
		{
			"id": "Burgomeister",
			"name": "Bourgmestre",
			"description": "<p>@Compendium[wfrp4e-core.career-descriptions.uqdZBoLtuLv0bHVV]{Bourgeois}</p>",
			"careergroup": "Bourgeois",
			"skills": ["Charisme", "Conduite", "Escalade", "Esquive", "Marchandage", "Pari", "Ragot", "Résistance à l'alcool", "Évaluation", "Intuition", "Mêlée (Bagarre)", "Musique (Au choix)", "Savoir (Local)", "Subornation", "Calme", "Perception", "Recherche", "Savoir (Loi)", "Intimidation", "Savoir (Politique)"],
			"incomeSkill": [4],
			"trappings": ["Chaîne de fonction", "Diligence et valet de pied", "Grande maison de ville avec jardins et serviteurs", "Vêtements de qualité"]
		},
		{
			"id": "Busker",
			"name": "Artiste de rue",
			"description": "<p>@Compendium[wfrp4e-core.career-descriptions.b96g5MZr3rk5zYAo]{Bateleur}</p>",
			"careergroup": "Bateleur",
			"skills": ["Athlétisme", "Charisme", "Divertissement (Au choix)", "Escamotage", "Marchandage", "Musique (Au choix)", "Ragot", "Représentation (Au choix)"],
			"incomeSkill": [2],
			"trappings": ["Bol", "Instrument"]
		},
		{
			"id": "Cargo Scavenger",
			"name": "Charognard de fret",
			"description": "<p>@Compendium[wfrp4e-core.career-descriptions.AnW8kwDb9koFgMPx]{Naufrageur}</p>",
			"careergroup": "Naufrageur",
			"skills": ["Canotage", "Escalade", "Esquive", "Mêlée (Basique)", "Natation", "Résistance", "Résistance à l'alcool", "Survie en extérieur"],
			"incomeSkill": [3],
			"trappings": ["Gants en cuir", "Grand sac", "Pied-de-biche"]
		},
		{
			"id": "Cat Burglar",
			"name": "Monte-en-l'air",
			"description": "<p>@Compendium[wfrp4e-core.career-descriptions.TgcyR0ZdG6bMOK9o]{Voleur}</p>",
			"careergroup": "Voleur",
			"skills": ["Athlétisme", "Calme", "Escalade", "Esquive", "Discrétion (Urbaine)", "Intuition", "Perception", "Résistance", "Crochetage", "Escamotage", "Évaluation", "Ragot", "Savoir (Local)", "Symboles secrets (Voleur)", "Distance (Arbalète)", "Intimidation", "Pari", "Subornation", "Charisme", "Piégeage"],
			"incomeSkill": [4],
			"trappings": ["Grappin", "Masque ou Foulard", "Vêtements sombre"]
		},
		{
			"id": "Cavalryman",
			"name": "Cavalier",
			"description": "<p>@Compendium[wfrp4e-core.career-descriptions.h9LHCAdlP4o55QvD]{Cavalier}</p>",
			"careergroup": "Cavalier",
			"skills": ["Emprise sur les animaux", "Équitation (Cheval)", "Langue (Bataille)", "Mêlée (Basique)", "Perception", "Résistance", "Soin des animaux", "Survie en extérieur", "Calme", "Charisme", "Distance (Poudre noire)", "Mêlée (Cavalerie)", "Ragot", "Résistance à l'alcool"],
			"incomeSkill": [1],
			"trappings": ["Bouclier", "Cheval de guerre léger avec selle et harnais", "Casque", "Pistolet avec 10 balles", "Plastron"]
		},		
		{
			"id": "Chancellor",
			"name": "Chancelier",
			"description": "<p>@Compendium[wfrp4e-core.career-descriptions.J8ejrXE0zWMjNsZd]{Conseiller}</p>",
			"careergroup": "Conseiller",
			"skills": ["Langue (Classique)", "Marchandage", "Perception", "Ragot", "Résistance", "Résistance à  l'alcool", "Savoir (Politique)", "Subornation", "Calme", "Charisme", "Évaluation", "Intuition", "Pari", "Savoir (Local)", "Commandement", "Divertissement (Narration)", "Langue (Au choix)", "Savoir (Au choix)", "Équitation (Cheval)", "Savoir (Héraldique)"],
			"incomeSkill": [6],
			"trappings": ["Cheval de selle avec selle et harnais", "Personnel de conseillers et assistants", "Tenue de cour de qualité"]
		},
		{
			"id": "Charlatan",
			"name": "Charlatan",
			"description": "<p>@Compendium[wfrp4e-core.career-descriptions.JTKAh4qCOCcPa2yN]{Charlatan}</p>",
			"careergroup": "Charlatan",
			"skills": ["Charisme", "Divertissement (Narration)", "Escamotage", "Marchandage", "Pari", "Ragot", "Résistance", "Subornation", "Calme", "Divertissement (Interprétation)", "Esquive", "Évaluation", "Intuition", "Perception"],
			"incomeSkill": [0],
			"trappings": ["Assortiment de poudres colorées et d'eau", "Assortiment de breloques et de colifichets", "1 faux document", "2 ensembles de vêtements de qualité"]
		},
		{
			"id": "Chartered Engineer",
			"name": "Ingénieur agréé",
			"description": "<p>@Compendium[wfrp4e-core.career-descriptions.c2n86bcUngGrHyO4]{Ingénieur}</p>",
			"careergroup": "Ingénieur",
			"skills": ["Calme", "Distance (Poudre noire)", "Langue (Classique)", "Métier (Ingénieur)", "Perception", "Résistance", "Résistance à  l'alcool", "Savoir (Ingénierie)", "Conduite", "Distance (Ingénierie)", "Esquive", "Langue (Guilde)", "Navigation", "Recherche", "Commandement", "Équitation (Cheval)", "Langue (Khazalid)", "Symboles secrets (Guilde)", "Langue (Au choix)", "Savoir (Au choix)"],
			"incomeSkill": [3],
			"trappings": ["Bibliothèque (Ingénieur)", "Grand atelier (Ingénieur)", "Licence de guilde", "Outils de métier de qualité (Ingénieur)"]
		},
		{
			"id": "Clerk",
			"name": "Employé",
			"description": "<p>@Compendium[wfrp4e-core.career-descriptions.uqdZBoLtuLv0bHVV]{Bourgeois}</p>",
			"careergroup": "Bourgeois",
			"skills": ["Charisme", "Conduite", "Escalade", "Esquive", "Marchandage", "Pari", "Ragot", "Résistance à l'alcool"],
			"incomeSkill": [4],
			"trappings": ["Bonnes chaussures", "Hébergement"]
		},
		{
			"id": "Coach Master",
			"name": "Maître cocher",
			"description": "<p>@Compendium[wfrp4e-core.career-descriptions.BnA8KJuCw16zwOVC]{Cocher}</p>",
			"careergroup": "Cocher",
			"skills": ["Conduite", "Distance (Immobilisation)", "Emprise sur les animaux", "Équitation (Cheval)", "Escalade", "Perception", "Résistance", "Soin des animaux", "Distance (Poudre noire)", "Intuition", "Navigation", "Ragot", "Résistance à l'alcool", "Savoir (Local)", "Dressage (Cheval)", "Intimidation", "Langue (Au choix)", "Savoir (Routes)", "Commandement", "Charisme"],
			"incomeSkill": [0],
			"trappings": ["Cotte de mailles", "Cape de qualité", "Pistolet"]
		},
		{
			"id": "Coachman",
			"name": "Cocher",
			"description": "<p>@Compendium[wfrp4e-core.career-descriptions.BnA8KJuCw16zwOVC]{Cocher}</p>",
			"careergroup": "Cocher",
			"skills": ["Conduite", "Distance (Immobilisation)", "Emprise sur les animaux", "Équitation (Cheval)", "Escalade", "Perception", "Résistance", "Soin des animaux", "Distance (Poudre noire)", "Intuition", "Navigation", "Ragot", "Résistance à l'alcool", "Savoir (Local)"],
			"incomeSkill": [0],
			"trappings": ["Chapeau", "Cor de cocher", "Veste de cuir", "Tromblon avec 10 coups"]
		},
		{
			"id": "Con Artist",
			"name": "Arnaqueur",
			"description": "<p>@Compendium[wfrp4e-core.career-descriptions.JTKAh4qCOCcPa2yN]{Charlatan}</p>",
			"careergroup": "Charlatan",
			"skills": ["Charisme", "Divertissement (Narration)", "Escamotage", "Marchandage", "Pari", "Ragot", "Résistance", "Subornation", "Calme", "Divertissement (Interprétation)", "Esquive", "Évaluation", "Intuition", "Perception", "Crochetage", "Langue (Voleur)", "Savoir (Héraldique)", "Symboles secrets (Voleur)"],
			"incomeSkill": [0],
			"trappings": ["Cochets de serrurier", "Plusieurs faux documents", "Nécessaire de déguisement"]
		},
		{
			"id": "Councilor",
			"name": "Échevin",
			"description": "<p>@Compendium[wfrp4e-core.career-descriptions.btrs5XFk2OQsCtqj]{Villageois}</p>",
			"careergroup": "Villageois",
			"skills": ["Athlétisme", "Mêlée (Bagarre)", "Ragot", "Résistance", "Résistance à  l'alcool", "Savoir (Local)", "Soin des animaux", "Survie en extérieur", "Conduite", "Divertissement (Narration)", "Esquive", "Marchandage", "Mêlée (Basique)", "Métier (Au choix)", "Commandement", "Charisme", "Intimidation", "Subornation"],
			"incomeSkill": [3],
			"trappings": ["Maison de village et atelier", "Mule et chariot"]
		},
		{
			"id": "Counsellor",
			"name": "Consultant",
			"description": "<p>@Compendium[wfrp4e-core.career-descriptions.J8ejrXE0zWMjNsZd]{Conseiller}</p>",
			"careergroup": "Conseiller",
			"skills": ["Langue (Classique)", "Marchandage", "Perception", "Ragot", "Résistance", "Résistance à  l'alcool", "Savoir (Politique)", "Subornation", "Calme", "Charisme", "Évaluation", "Intuition", "Pari", "Savoir (Local)", "Commandement", "Divertissement (Narration)", "Langue (Au choix)", "Savoir (Au choix)"],
			"incomeSkill": [6],
			"trappings": ["Assistant", "Vêtements de qualité"]
		},
		{
			"id": "Courier",
			"name": "Courrier",
			"description": "<p>@Compendium[wfrp4e-core.career-descriptions.8pk2uCvAMUAXWbcP]{Messager}</p>",
			"careergroup": "Messager",
			"skills": ["Athlétisme", "Escalade", "Esquive", "Mêlée (Bagarre)", "Navigation", "Perception", "Ragot", "Résistance", "Calme", "Charisme", "Équitation (Cheval)", "Mêlée (Basique)", "Savoir (Local)", "Soin des animaux", "Emprise sur les animaux", "Résistance à l'alcool", "Subornation", "Survie à l'extérieur"],
			"incomeSkill": [7],
			"trappings": ["Bouclier", "Sac à dos", "Sacoches"]
		},
		{
			"id": "Courier-Captain",
			"name": "Capitaine courrier",
			"description": "<p>@Compendium[wfrp4e-core.career-descriptions.8pk2uCvAMUAXWbcP]{Messager}</p>",
			"careergroup": "Messager",
			"skills": ["Athlétisme", "Escalade", "Esquive", "Mêlée (Bagarre)", "Navigation", "Perception", "Ragot", "Résistance", "Calme", "Charisme", "Équitation (Cheval)", "Mêlée (Basique)", "Savoir (Local)", "Soin des animaux", "Emprise sur les animaux", "Résistance à l'alcool", "Subornation", "Survie à l'extérieur", "Commandement", "Intimdation"],
			"incomeSkill": [7],
			"trappings": ["Cotte de mailles", "Courriers", "Nécessaire d'écriture"]
		},
		{
			"id": "Court Physician",
			"name": "Médecin de cour",
			"description": "<p>@Compendium[wfrp4e-core.career-descriptions.Ora8bmvHERjYWEQn]{Médecin}</p>",
			"careergroup": "Médecin",
			"skills": ["Calme", "Conduite", "Escamotage", "Intimidation", "Perception", "Résistance", "Soin", "Subornation", "Charisme", "Langue (Guilde)", "Marchandage", "Métier (Barbier)", "Savoir (Anatomie)", "Savoir (Médecine)", "Commandement", "Intimidation", "Recherche", "Résistance à l'alcool", "Représentation (Danse)", "Savoir (Noblesse)"],
			"incomeSkill": [6],
			"trappings": ["Lettre de nomination", "Tenue de cour"]
		},
		{
			"id": "Crime Lord",
			"name": "Baron du crime",
			"description": "<p>@Compendium[wfrp4e-core.career-descriptions.yGZN7bMjbGH7kCMK]{Rançonneur}</p>",
			"careergroup": "Rançonneur",
			"skills": ["Calme", "Discrétion (Urbaine)", "Esquive", "Intimidation", "Mêlée (Bagarre)", "Résistance", "Résistance à l'alcool", "Savoir (Local)", "Charisme", "Évaluation", "Langue (Estalien ou tiléen)", "Mêlée (Basique)", "Ragot", "Subornation", "Commandement", "Distance (Arbalète)", "Intuition", "Perception", "Savoir (Loi)", "Savoir (Politique)"],
			"incomeSkill": [3],
			"trappings": ["Chefs de bande subordonnés", "Réseau d'Informateurs","Vêtements et chapeau de qualité"]
		},
		{
			"id": "Custodian",
			"name": "Gardien",
			"description": "<p>@Compendium[wfrp4e-core.career-descriptions.ZAItIWSNYQPb1pmi]{Intendant}</p>",
			"careergroup": "Intendant",
			"skills": ["Athlétisme", "Calme", "Emprise sur les animaux", "Intuition", "Perception", "Résistance", "Résistance à l'alcool", "Savoir (Local)"],
			"incomeSkill": [4],
			"trappings": ["Clés", "Huile à lampe", "Lanterne", "Livrée"]
		},
		{
			"id": "Daemon Slayer",
			"name": "Pourfendeur de démons",
			"description": "<p>@Compendium[wfrp4e-core.career-descriptions.9p3DaFU5hMFP1C3v]{Pourfendeur}</p>",
			"careergroup": "Pourfendeur",
			"skills": ["Calme", "Esquive", "Mêlée (Basique)", "Pari", "Résistance", "Résistance à l'alcool", "Savoir (Trolls)", "Soin", "Évaluation", "Intimidation", "Langue (Bataille)", "Mêlée (À deux mains)", "Savoir (Géants)", "Survie en extérieur", "Distance (Lancer)", "Divertissement (Narration)", "Perception", "Savoir (Dragons)", "Intuition", "Savoir (Chaos)"],
			"incomeSkill": [2],
			"trappings": ["Tête de dragon"]
		},
		{
			"id": "Demagogue",
			"name": "Démagogue",
			"description": "<p>@Compendium[wfrp4e-core.career-descriptions.yDGBs92ko6rUyoTe]{Agitateur}</p>",
			"careergroup": "Agitateur",
			"skills": ["Art (Écriture)", "Charisme", "Marchandage", "Métier (Imprimeur)", "Ragot", "Résistance à l'alcool", "Savoir (Politique)", "Subornation", "Calme", "Commandement", "Divertissement (Narration)", "Esquive", "Intuition", "Pari", "Athlétisme", "Intimidation", "Mêlée (Bagarre)", "Perception", "Équitation (Cheval)", "Savoir (Héraldique)"],
			"incomeSkill": [1],
			"trappings": ["Chapeau impressionnant", "Imprimerie", "Mécène", "3 pamphlétaires"]
		},
		{
			"id": "Detective",
			"name": "Détective",
			"description": "<p>@Compendium[wfrp4e-core.career-descriptions.DAHJ4cu3WiGCdakE]{Enquêteur}</p>",
			"careergroup": "Enquêteur",
			"skills": ["Calme", "Charisme", "Discrétion (Urbaine)", "Escalade", "Intuition", "Perception", "Pistage", "Ragot", "Crochetage", "Escamotage", "Esquive", "Mêlée (Bagarre)", "Résistance à l'alcool", "Savoir (Loi)", "Commandement", "Évaluation", "Savoir (Au choix)", "Subornation", "Intimidation", "Savoir (Au choix)"],
			"incomeSkill": [5],
			"trappings": ["Longue-vue", "Réseau d'informateurs"]
		},
		{
			"id": "Diplomat",
			"name": "Diplomate",
			"description": "<p>@Compendium[wfrp4e-core.career-descriptions.B0zxjP3KbZag5Y79]{Émissaire}</p>",
			"careergroup": "Émissaire",
			"skills": ["Athlétisme", "Canotage", "Charisme", "Conduite", "Équitation (Cheval)", "Esquive", "Intuition", "Résistance", "Art (Écriture)", "Calme", "Marchandage", "Ragot", "Savoir (Politique)", "Subornation", "Commandement", "Intimidation", "Langue (Au choix)", "Navigation"],
			"incomeSkill": [2],
			"trappings": ["Assistant", "Carte", "Vêtements de qualité"]
		},
		{
			"id": "Dock Master",
			"name": "Maître du port",
			"description": "<p>@Compendium[wfrp4e-core.career-descriptions.DAHJ4cu3WiGCdakE]{Débardeur}</p>",
			"careergroup": "Débardeur",
			"skills": ["Athlétisme", "Escalade", "Esquive", "Mêlée (Basique)", "Natation", "Ragot", "Résistance", "Résistance à l'alcool", "Discrétion (Urbaine)", "Divertissement (Narration)", "Intimidation", "Pari", "Perception", "Subornation", "Calme", "Commandement", "Évaluation", "Intuition", "Charisme", "Savoir (Fiscalité)"],
			"incomeSkill": [6],
			"trappings": ["Bureau et personnel", "Nécessaire d'écriture"]
		},
		{
			"id": "Dockhand",
			"name": "Manutentionnaire",
			"description": "<p>@Compendium[wfrp4e-core.career-descriptions.DAHJ4cu3WiGCdakE]{Débardeur}</p>",
			"careergroup": "Débardeur",
			"skills": ["Athlétisme", "Escalade", "Esquive", "Mêlée (Basique)", "Natation", "Ragot", "Résistance", "Résistance à l'alcool"],
			"incomeSkill": [6],
			"trappings": ["Arme de poing (Crochet de bateau)", "Gants en cuir"]
		},
		{
			"id": "Doktor",
			"name": "Docteur",
			"description": "<p>@Compendium[wfrp4e-core.career-descriptions.Ora8bmvHERjYWEQn]{Médecin}</p>",
			"careergroup": "Médecin",
			"skills": ["Calme", "Conduite", "Escamotage", "Intimidation", "Perception", "Résistance", "Soin", "Subornation", "Charisme", "Langue (Guilde)", "Marchandage", "Métier (Barbier)", "Savoir (Anatomie)", "Savoir (Médecine)", "Commandement", "Intimidation", "Recherche", "Résistance à l'alcool"],
			"incomeSkill": [6],
			"trappings": ["Apprenti", "Atelier (Médecine)"]
		},
		{
			"id": "Dragon Slayer",
			"name": "Pourfendeur de dragons",
			"description": "<p>@Compendium[wfrp4e-core.career-descriptions.9p3DaFU5hMFP1C3v]{Pourfendeur}</p>",
			"careergroup": "Pourfendeur",
			"skills": ["Calme", "Esquive", "Mêlée (Basique)", "Pari", "Résistance", "Résistance à l'alcool", "Savoir (Trolls)", "Soin", "Évaluation", "Intimidation", "Langue (Bataille)", "Mêlée (À deux mains)", "Savoir (Géants)", "Survie en extérieur", "Distance (Lancer)", "Divertissement (Narration)", "Perception", "Savoir (Dragons)"],
			"incomeSkill": [2],
			"trappings": ["Haches de lancer", "Tête de géant"]
		},
		{
			"id": "Duellist",
			"name": "Duelliste",
			"description": "<p>@Compendium[wfrp4e-core.career-descriptions.RNcsFphKVYohTrS9]{Duelliste}</p>",
			"careergroup": "Duelliste",
			"skills": ["Athlétisme", "Esquive", "Intuition", "Mêlée (Au choix)", "Langue (Classique)", "Perception", "Résistance", "Soin", "Calme", "Charisme", "Distance (Poudre noire)", "Mêlée (Parade)", "Métier (Armurier)", "Pari"],
			"incomeSkill": [3],
			"trappings": ["Main gauche ou brise-épée", "Pistolet avec poudre noire et munitions"]
		},
		{
			"id": "Duelmaster",
			"name": "Maître duelliste",
			"description": "<p>@Compendium[wfrp4e-core.career-descriptions.RNcsFphKVYohTrS9]{Duelliste}</p>",
			"careergroup": "Duelliste",
			"skills": ["Athlétisme", "Esquive", "Intuition", "Mêlée (Au choix)", "Langue (Classique)", "Perception", "Résistance", "Soin", "Calme", "Charisme", "Distance (Poudre noire)", "Mêlée (Parade)", "Métier (Armurier)", "Pari", "Commandement", "Intimidation", "Mêlée (Basique)", "Représentation (Acrobatie)"],
			"incomeSkill": [3],
			"trappings": ["Arme à 1 main", "2 épées d'entraînement en bois", "Fidèle compagnon", "Rapière de qualité"]
		},
		{
			"id": "Engineer",
			"name": "Ingénieur",
			"description": "<p>@Compendium[wfrp4e-core.career-descriptions.c2n86bcUngGrHyO4]{Ingénieur}</p>",
			"careergroup": "Ingénieur",
			"skills": ["Calme", "Distance (Poudre noire)", "Langue (Classique)", "Métier (Ingénieur)", "Perception", "Résistance", "Résistance à  l'alcool", "Savoir (Ingénierie)", "Conduite", "Distance (Ingénierie)", "Esquive", "Langue (Guilde)", "Navigation", "Recherche"],
			"incomeSkill": [3],
			"trappings": ["Licence de guilde", "Outils de métier (Ingénieur)"]
		},
		{
			"id": "Entertainer",
			"name": "Bateleur",
			"description": "<p>@Compendium[wfrp4e-core.career-descriptions.b96g5MZr3rk5zYAo]{Bateleur}</p>",
			"careergroup": "Bateleur",
			"skills": ["Athlétisme", "Charisme", "Divertissement (Au choix)", "Escamotage", "Marchandage", "Musique (Au choix)", "Ragot", "Représentation (Au choix)", "Distance (Lancer)", "Divertissement (Au choix)", "Équitation (Au choix)", "Mêlée (Basique)", "Musique (Au choix)", "Représentation (Au choix)"],
			"incomeSkill": [2],
			"trappings": ["Armes de jet", "Costume", "Instrument", "Sélection de partitions (que vous ne pouvez pas encore lire)"]
		},
		{
			"id": "Envoy",
			"name": "Émissaire",
			"description": "<p>@Compendium[wfrp4e-core.career-descriptions.B0zxjP3KbZag5Y79]{Émissaire}</p>",
			"careergroup": "Émissaire",
			"skills": ["Athlétisme", "Canotage", "Charisme", "Conduite", "Équitation (Cheval)", "Esquive", "Intuition", "Résistance", "Art (Écriture)", "Calme", "Marchandage", "Ragot", "Savoir (Politique)", "Subornation"],
			"incomeSkill": [2],
			"trappings": ["Encre et plume", "10 feuilles de parchemin"]
		},
		{
			"id": "Explorer",
			"name": "Explorateur",
			"description": "<p>@Compendium[wfrp4e-core.career-descriptions.Xl9yyv67BB8a8XFo]{Éclaireur}</p>",
			"careergroup": "Éclaireur",
			"skills": ["Emprise sur les animaux", "Escalade", "Mêlée (Basique)", "Perception", "Ragot", "Résistance", "Savoir (Local)", "Survie en extérieur", "Athlétisme", "Discrétion (Rurale)", "Distance (Arc)", "Équitation (Cheval)", "Navigation", "Pistage", "Marchandage", "Natation", "Soin des animaux", "Symboles secrets (Chasseur)", "Langue (Au choix)", "Métier (Cartographe)"],
			"incomeSkill": [3],
			"trappings": ["Outil de métier (Cartographe)", "Sélection de cartes"]
		},
		{
			"id": "Exterminator",
			"name": "Exterminateur",
			"description": "<p>@Compendium[wfrp4e-core.career-descriptions.0DuRRCYdahOKxDPF]{Ratier}</p>",
			"careergroup": "Ratier",
			"skills": ["Athlétisme", "Distance (Fronde)", "Dressage (Chien)", "Emprise sur les animaux", "Discrétion (Souterraine ou urbaine)", "Mêlée (Basique)", "Résistance", "Résistance à l'alcool", "Marchandage", "Perception", "Piégeage", "Ragot", "Soin des animaux", "Savoir (Poison)", "Calme", "Distance (Arbalète)", "Escalade", "Esquive", "Commandement", "Pistage"],
			"incomeSkill": [5],
			"trappings": ["Assistant", "Gros chien vicieux", "Sac d'appâts empoisonnés (10 doses de brise-coeur)"]
		},
		{
			"id": "Fellow",
			"name": "Chercheur",
			"description": "<p>@Compendium[wfrp4e-core.career-descriptions.cIBJfaY9DKJh5ZEM]{Érudit}</p>",
			"careergroup": "Érudit",
			"skills": ["Divertissement (Narration)", "Langue (Classique)", "Marchandage", "Pari", "Ragot", "Recherche", "Résistance à l'alcool", "Savoir (Au choix)", "Art (Écriture)", "Intuition", "Langue (Au choix)", "Métier (Au choix)", "Perception", "Savoir (Au choix)", "Divertissement (Conférence)", "Intimidation", "Langue (Au choix)", "Savoir (Au choix)"],
			"incomeSkill": [7],
			"trappings": ["Mortier", "Robes"]
		},
		{
			"id": "Fence",
			"name": "Receleur",
			"description": "<p>@Compendium[wfrp4e-core.career-descriptions.lbbddfm36XMb8SYg]{Receleur}</p>",
			"careergroup": "Receleur",
			"skills": ["Charisme", "Esquive", "Évaluation", "Marchandage", "Mêlée (Basique)", "Pari", "Ragot", "Résistance à l'alcool", "Calme", "Intimidation", "Intuition", "Métier (Graveur)", "Perception", "Symboles secrets (Voleur)"],
			"incomeSkill": [2],
			"trappings": ["Monocle", "Nécessaire d'écriture", "Outils de métier (Graveur)"]
		},
		{
			"id": "Fencer",
			"name": "Escrimeur",
			"description": "<p>@Compendium[wfrp4e-core.career-descriptions.RNcsFphKVYohTrS9]{Duelliste}</p>",
			"careergroup": "Duelliste",
			"skills": ["Athlétisme", "Esquive", "Intuition", "Mêlée (Au choix)", "Langue (Classique)", "Perception", "Résistance", "Soin"],
			"incomeSkill": [3],
			"trappings": ["Arme de poing ou rapière", "Sacoche contenant des vêtements et 1d10 bandages"]
		},
		{
			"id": "First Knight",
			"name": "Chevalier commandeur",
			"description": "<p>@Compendium[wfrp4e-core.career-descriptions.n2VdkCPNNxdupjeQ]{Chevalier}</p>",
			"careergroup": "Chevalier",
			"skills": ["Athlétisme", "Emprise sur les animaux", "Équitation (Cheval)", "Mêlée (Cavalerie)", "Métier (Maréchal-ferrant)", "Savoir (Héraldique)", "Soin", "Soin des animaux", "Calme", "Esquive", "Intimidation", "Langue (Bataille)", "Mêlée (Au choix)", "Résistance", "Commandement", "Charisme", "Résistance à l'alcool", "Savoir (Guerre)"],
			"incomeSkill": [3],
			"trappings": ["Carapaçon", "Petite unité de chevaliers"]
		},
		{
			"id": "Flagellant",
			"name": "Flagellant",
			"description": "<p>@Compendium[wfrp4e-core.career-descriptions.Vtice54Y7PV95Dkp]{Flagellant}</p>",
			"careergroup": "Flagellant",
			"skills": ["Esquive", "Intimidation", "Intuition", "Mêlée (Fléau)", "Résistance", "Savoir (Sigmar)", "Soin", "Survie en extérieur", "Art (Idole)", "Athlétisme", "Calme", "Distance (Fronde)", "Langue (Classique)", "Savoir (Empire)", "Charisme", "Langue (Au choix)", "Perception", "Savoir (Théologie)", "Commandement", "Divertissement (Discours)"],
			"incomeSkill": [3],
			"trappings": ["Affiche", "Fronde", "Symbole religieux"]
		},		
		{
			"id": "Foreman",
			"name": "Contremaître",
			"description": "<p>@Compendium[wfrp4e-core.career-descriptions.DAHJ4cu3WiGCdakE]{Débardeur}</p>",
			"careergroup": "Débardeur",
			"skills": ["Athlétisme", "Escalade", "Esquive", "Mêlée (Basique)", "Natation", "Ragot", "Résistance", "Résistance à l'alcool", "Discrétion (Urbaine)", "Divertissement (Narration)", "Intimidation", "Pari", "Perception", "Subornation", "Calme", "Commandement", "Évaluation", "Intuition"],
			"incomeSkill": [6],
			"trappings": ["Gang de débardeur", "Sifflet"]
		},
		{
			"id": "Fortune Teller",
			"name": "Voyant",
			"trappings": [
				"Paquet de cartes ou Dés",
				"Bijoux bas de gamme"
			]			
		},
		{
			"id": "Gang Boss",
			"name": "Chef de bande",
			"description": "<p>@Compendium[wfrp4e-core.career-descriptions.yGZN7bMjbGH7kCMK]{Rançonneur}</p>",
			"careergroup": "Rançonneur",
			"skills": ["Calme", "Discrétion (Urbaine)", "Esquive", "Intimidation", "Mêlée (Bagarre)", "Résistance", "Résistance à l'alcool", "Savoir (Local)", "Charisme", "Évaluation", "Langue (Estalien ou tiléen)", "Mêlée (Basique)", "Ragot", "Subornation", "Commandement", "Distance (Arbalète)", "Intuition", "Perception"],
			"incomeSkill": [3],
			"trappings": ["Arbalète de poing avec 10 Carreaux", "Bande de Malfrats et de Rançonneurs", "Repaire"]
		},
		{
			"id": "Giant Slayer",
			"name": "Tueur de Géants",
			"trappings": [
				"Grande Hache",
				"Bijoux",
				"Tête de Troll"
			]			
		},
		{
			"id": "Governor",
			"name": "Gouverneur",
			"description": "<p>@Compendium[wfrp4e-core.career-descriptions.ZAItIWSNYQPb1pmi]{Intendant}</p>",
			"careergroup": "Intendant",
			"skills": ["Athlétisme", "Calme", "Emprise sur les animaux", "Intuition", "Perception", "Résistance", "Résistance à l'alcool", "Savoir (Local)", "Distance (Arc)", "Équitation (Cheval)", "Mêlée (Basique)", "Natation", "Soin des animaux", "Survie en extérieur", "Commandement", "Charisme", "Ragot", "Subornation", "Évaluation", "Langue (Au choix)"],
			"incomeSkill": [4],
			"trappings": ["Assistant", "Résidence de gouverneur", "Serviteur"]
		},
		{
			"id": "Grave Robber",
			"name": "Pilleur de tombes",
			"description": "<p>@Compendium[wfrp4e-core.career-descriptions.W2Ovj3ec7eqZUuuv]{Pilleur de tombes}</p>",
			"careergroup": "Pilleur de tombes",
			"skills": ["Calme", "Escalade", "Esquive", "Discrétion (Au choix)", "Intuition", "Perception", "Ragot", "Résistance", "Conduite", "Évaluation", "Marchandage", "Mêlée (Basique)", "Savoir (Médecine)", "Subornation"],
			"incomeSkill": [3],
			"trappings": ["Arme de poing", "Épieu", "Sac à dos", "Lampe-tempête et Huile"]			
		},
		{
			"id": "Greenfish",
			"name": "Alevin",
			"trappings": [
				"Seau",
				"Hameçons et canne",
				"Jambières de cuir"
			]			
		},
		{
			"id": "Guard",
			"name": "Garde",
			"trappings": [
				"Arc avec 10 flèches",
				"Cotte de mailles",
				"Bouclier",
				"Lance"
			]			
		},
		{
			"id": "Guard Officer",
			"name": "Officier de la garde",
			"trappings": [
				"Cuirasse"
			]
		},
		{
			"id": "Guide",
			"name": "Guide",
			"description": "<p>@Compendium[wfrp4e-core.career-descriptions.Xl9yyv67BB8a8XFo]{Éclaireur}</p>",
			"careergroup": "Éclaireur",
			"skills": ["Emprise sur les animaux", "Escalade", "Mêlée (Basique)", "Perception", "Ragot", "Résistance", "Savoir (Local)", "Survie en extérieur"],
			"incomeSkill": [3],
			"trappings": ["Arme de poing", "Chaussures robustes et cape", "Corde", "Veste en cuir"]
		},
		{
			"id": "Guildmaster",
			"name": "Maître de Guilde",
			"description": "",
			"trappings": [
				"Guilde",
				"Vêtements de qualité"
			]			
		},
		{
			"id": "Hedge Apprentice",
			"name": "Apprenti Sorcier de Village",
			"trappings": [
				"1d10 collier de chance",
				"Baton de combat",
				"Sac à dos"
			]			
		},
		{
			"id": "Hedge Master",
			"name": "Maître Sorcier de village",
			"trappings": [
				"Hutte isolée",
				"Apprenti"
			]			
		},
		{
			"id": "Hedge Witch",
			"name": "Sorcier de village",
			"trappings": [
				"Nécessaire antipoison",
				"Cataplasme de guérison",
				"Outil de la profession (Herboriste)"
			]			
		},
		{
			"id": "Hedgewise",
			"name": "Sage de village",
			"trappings": [
				"Assortiment de crânes d'animaux",
				"Cape et coiffe de cérémonie"
			]			
		},
		{
			"id": "Herald",
			"name": "Héraut",
			"description": "",
			"trappings": [
				"Veste de cuir",
				"Livrée",
				"Etui à parchemins"
			]			
		},
		{
			"id": "Herb Gatherer",
			"name": "Cueilleur",
			"trappings": [
				"Botes",
				"Manteau",
				"Sacoche avec assortiments d'herbes"
			]			
		},
		{
			"id": "Herb Master",
			"name": "Maître Herboriste",
			"trappings": [
				"Cueilleur",
				"3 Potions de Guérison",
				"Potion de soins",
				"Atelier (Herboriste)"
			]			
		},
		{
			"id": "Herbalist",
			"name": "Herboriste",
			"trappings": [
				"Arme à 1 main (Serpe)",
				"Cataplasme de Guérison",
				"Outil de la profession (Herboriste)"
			]			
		},
		{
			"id": "Herbwise",
			"name": "Herboriste suprême",
			"trappings": [
				"Poney et charette"
			]			
		},
		{
			"id": "Hexer",
			"name": "Ensorceleur",
			"trappings": [
				"Bougies",
				"Craie",
				"Poupée",
				"Epingles"
			]			
		},
		{
			"id": "High Priest",
			"name": "Haut Prêtre",
			"description": "",
			"trappings": [
				"Robes de qualité",
				"Relique religieuse",
				"Prêtres subordonnés",
				"Temple"
			]			
		},
		{
			"id": "Hitman",
			"name": "Tueur à gages",
			"trappings": [
				"Cape",
				"Garot",
				"Poison",
				"Couteaux de lancer"
			]			
		},
		{
			"id": "Honor Guard",
			"name": "Garde d'honneur",
			"trappings": [
				"Arme lourde ou Hallebarde",
				"Heaume",
				"Uniforme"
			]			
		},
		{
			"id": "Horseman",
			"name": "Page",
			"trappings": [
				"Veste de cuir",
				"Cheval de selle avec fontes et selle"
			]			
		},
		{
			"id": "Huffer",
			"name": "Nautonier",
			"trappings": [
				"Pourpoint de cuir",
				"Corde",
				"Barque"
			]			
		},
		{
			"id": "Hunter",
			"name": "Chasseur",
			"trappings": [
				"Arc avec 10 flèches"
			]			
		},
		{
			"id": "Huntsmaster",
			"name": "Maître Chasseur",
			"trappings": [
				"Cheval de selle avec fontes et selle",
				"Meute de chiens de chasse"
			]			
		},
		{
			"id": "Hustler",
			"name": "Rabatteur",
			"description": "<p>@Compendium[wfrp4e-core.career-descriptions.MY4aFbQL5T9znCUd]{Entremetteur}</p>",
			"careergroup": "Entremetteur",
			"skills": ["Charisme", "Divertissement (Au choix)", "Intimidation", "Marchandage", "Pari", "Ragot", "Résistance à l'alcool", "Subornation"],
			"incomeSkill": [0],
			"trappings": ["Flacon de spiritueux"]
		},
		{
			"id": "Informer",
			"name": "Informateur",
			"description": "",
			"trappings": [
				"Batonnet de fusao,",
				"Sacoche contenant 2 ensemble de vêtements et manteau à capuche"
			]			
		},
		{
			"id": "Initiate",
			"name": "Initié",
			"description": "",
			"trappings": [
				"Symbole Religieux",
				"Robes"
			]			
		},
		{
			"id": "Inquisitor",
			"name": "Inquisiteur",
			"trappings": [
				"Vêtement de qualité",
				"Interrogateurs subordonnés"
			]			
		},
		{
			"id": "Interrogator",
			"name": "Interrogateur",
			"trappings": [
				"Arme à 1 main",
				"Instruments de Torture"
			]			
		},
		{
			"id": "Investigator",
			"name": "Enquêteur",
			"description": "<p>@Compendium[wfrp4e-core.career-descriptions.DAHJ4cu3WiGCdakE]{Enquêteur}</p>",
			"careergroup": "Enquêteur",
			"skills": ["Calme", "Charisme", "Discrétion (Urbaine)", "Escalade", "Intuition", "Perception", "Pistage", "Ragot", "Crochetage", "Escamotage", "Esquive", "Mêlée (Bagarre)", "Résistance à l'alcool", "Savoir (Loi)"],
			"incomeSkill": [5],
			"trappings": ["Arme de poing", "Crochet", "Loupe", "Veste en cuir"]
		},
		{
			"id": "Judge",
			"name": "Juge",
			"description": "",
			"trappings": [
				"Maillet",
				"Perruque Ostentatoire"
			]			
		},
		{
			"id": "Judicial Champion",
			"name": "Champion de justice",
			"description": "<p>@Compendium[wfrp4e-core.career-descriptions.RNcsFphKVYohTrS9]{Duelliste}</p>",
			"careergroup": "Duelliste",
			"skills": ["Athlétisme", "Esquive", "Intuition", "Mêlée (Au choix)", "Langue (Classique)", "Perception", "Résistance", "Soin", "Calme", "Charisme", "Distance (Poudre noire)", "Mêlée (Parade)", "Métier (Armurier)", "Pari", "Commandement", "Intimidation", "Mêlée (Basique)", "Représentation (Acrobatie)", "Mêlée (Au choix)", "Savoir (Loi)"],
			"incomeSkill": [3],
			"trappings": ["2 armes de qualité"]
		},
		{
			"id": "Knight",
			"name": "Chevalier",
			"description": "<p>@Compendium[wfrp4e-core.career-descriptions.n2VdkCPNNxdupjeQ]{Chevalier}</p>",
			"careergroup": "Chevalier",
			"skills": ["Athlétisme", "Emprise sur les animaux", "Équitation (Cheval)", "Mêlée (Cavalerie)", "Métier (Maréchal-ferrant)", "Savoir (Héraldique)", "Soin", "Soin des animaux", "Calme", "Esquive", "Intimidation", "Langue (Bataille)", "Mêlée (Au choix)", "Résistance"],
			"incomeSkill": [3],
			"trappings": ["Arme de mêlée (Au choix)", "Armure de plates et casque", "Destrier avec selle et harnais", "Lance d'arçon"]
		},
		{
			"id": "Knight of the Inner Circle",
			"name": "Chevalier du cercle intérieur",
			"description": "<p>@Compendium[wfrp4e-core.career-descriptions.n2VdkCPNNxdupjeQ]{Chevalier}</p>",
			"careergroup": "Chevalier",
			"skills": ["Athlétisme", "Emprise sur les animaux", "Équitation (Cheval)", "Mêlée (Cavalerie)", "Métier (Maréchal-ferrant)", "Savoir (Héraldique)", "Soin", "Soin des animaux", "Calme", "Esquive", "Intimidation", "Langue (Bataille)", "Mêlée (Au choix)", "Résistance", "Commandement", "Charisme", "Résistance à l'alcool", "Savoir (Guerre)", "Savoir (Au choix)", "Symboles secrets (Ordre de chevalerie)"],
			"incomeSkill": [3],
			"trappings": ["Écuyer", "Grand casque à plumes", "Grande unité de chevaliers ou plusieurs petites unités de chevaliers"]
		},
		{
			"id": "Landsman",
			"name": "Marin d'eau douce",
			"description": "<p>@Compendium[wfrp4e-core.career-descriptions.wu6aG1XPdzvpiLcR]{Marin}</p>",
			"careergroup": "Marin",
			"skills": ["Canotage", "Escalade", "Mêlée (Bagarre)", "Natation", "Pari", "Pilotage", "Ragot", "Résistance à l'alcool"],
			"incomeSkill": [5],
			"trappings": ["Balai", "Brosse","Seau"]
		},
		{
			"id": "Lawyer",
			"name": "Juriste",
			"description": "",
			"trappings": [
				"Robes de court",
				"License de Guilde",
				"Nécessaire d'écriture"
			]			
		},
		{
			"id": "Lector",
			"name": "Lecteur",
			"description": "",
			"trappings": [
				"Bibliothèque (Théologie)",
				"Grand Prêtes subordonnés"
			]			
		},
		{
			"id": "Light Cavalry Officer",
			"name": "Officier de cavalerie",
			"trappings": [
				"Paquet de cartes",
				"Vêtements de qualité"
			]			
		},
		{
			"id": "Light Cavalry Sergeant",
			"name": "Sergent de cavalerie",
			"trappings": [
				"Insigne"
			]			
		},
		{
			"id": "Maestro",
			"name": "Maestro",
			"description": "",
			"trappings": [
				"Grand atelier (Artiste)",
				"Bibliothèque (Art)",
				"3 Apprentis"
			]			
		},
		{
			"id": "Magistrate",
			"name": "Magistrat",
			"description": "",
			"trappings": [
				"Bibliothèque (Droit)",
				"Robes de qualité",
				"Sceau"
			]			
		},
		{
			"id": "Magnate",
			"name": "Magnat",
			"description": "<p>@Compendium[wfrp4e-core.career-descriptions.CMIowWLOafHKAhnB]{Noble}</p>",
			"careergroup": "Noble",
			"skills": ["Commandement", "Intimidation", "Mêlée (Escrime)", "Musique (Au choix)", "Pari", "Résistance à l'alcool", "Savoir (Héraldique)", "Subornation", "Charisme", "Équitation (Cheval)","Langue (Classique)", "Mêlée (Parade)", "Ragot", "Savoir (Local)", "Intuition", "Langue (Au choix)", "Perception", "Savoir (Politique)"],
			"incomeSkill": [0],
			"trappings": ["Bijoux d'une valeur de 200 co", "Chevalière", "200 co", "Fief", "2 tenues cour de qualité"]
		},
		{
			"id": "Master Apothecary",
			"name": "Maitre Apothicaire",
			"description": "",
			"trappings": [
				"Bibliothèque (Apothicaire)",
				"Apprenti",
				"Atelier"
			]			
		},
		{
			"id": "Master Artisan",
			"name": "Maître Artisan",
			"description": "",
			"trappings": [
				"Apprenti",
				"Atelier"
			]			
		},
		{
			"id": "Master Artist",
			"name": "Maître Artiste",
			"description": "",
			"trappings": [
				"Apprenti",
				"Mécène",
				"Atelier (Artiste)"
			]			
		},
		{
			"id": "Master Beggar",
			"name": "Maître Mendiant",
			"description": "",
			"trappings": [
				"Nécessaire de déguisement",
				"Cachette",
				"Suivant pauvre"
			]			
		},
		{
			"id": "Master Bounty Hunter",
			"name": "Maître chasseur de primes",
			"trappings": [
				"Cotte de mailles",
				"Cheval de selle et selle"
			]
		},
		{
			"id": "Master Engineer",
			"name": "Maître Ingénieur",
			"description": "",
			"trappings": [
				"Atelier"
			]			
		},
		{
			"id": "Master Fence",
			"name": "Maître receleur",
			"description": "<p>@Compendium[wfrp4e-core.career-descriptions.lbbddfm36XMb8SYg]{Receleur}</p>",
			"careergroup": "Receleur",
			"skills": ["Charisme", "Esquive", "Évaluation", "Marchandage", "Mêlée (Basique)", "Pari", "Ragot", "Résistance à l'alcool", "Calme", "Intimidation", "Intuition", "Métier (Graveur)", "Perception", "Symboles secrets (Voleur)", "Divertissement (Narration)", "Savoir (Art)", "Savoir (Local)", "Subornation"],
			"incomeSkill": [2],
			"trappings": ["Boutique de prêteur sur gages"]
		},
		{
			"id": "Master Investigator",
			"name": "Maître investigateur",
			"description": "<p>@Compendium[wfrp4e-core.career-descriptions.DAHJ4cu3WiGCdakE]{Enquêteur}</p>",
			"careergroup": "Enquêteur",
			"skills": ["Calme", "Charisme", "Discrétion (Urbaine)", "Escalade", "Intuition", "Perception", "Pistage", "Ragot", "Crochetage", "Escamotage", "Esquive", "Mêlée (Bagarre)", "Résistance à l'alcool", "Savoir (Loi)", "Commandement", "Évaluation", "Savoir (Au choix)", "Subornation"],
			"incomeSkill": [5],
			"trappings": ["Assistant", "Bureau"]
		},
		{
			"id": "Master Merchant",
			"name": "Maître Marchand",
			"description": "",
			"trappings": [
				"Maison de ville avec Serviteurs",
				"Entrepot",
				"100 CO"
			]			
		},
		{
			"id": "Master Miner",
			"name": "Maître Mineur",
			"trappings": [
				"Arme Longue (Pique à 2 mains)",
				"Heaume",
				"Outils (Ingénieur)"
			]			
		},
		{
			"id": "Master Pedlar",
			"name": "Maître colporteur",
			"trappings": [
				"Charette à bras",
				"Biens pour une valeur de 2d10 CO"
			]			
		},
		{
			"id": "Master Pilot",
			"name": "Maître nocher",
			"trappings": [
				"Mousse",
				"Petite bateau de rivière"
			]
		},
		{
			"id": "Master Smuggler",
			"name": "Maître contrebandier",
			"trappings": [
				"Coureur de rivières",
				"Bateau de transport fluvial rapide"
			]			
		},
		{
			"id": "Master Thief",
			"name": "Maître voleur",
			"description": "<p>@Compendium[wfrp4e-core.career-descriptions.TgcyR0ZdG6bMOK9o]{Voleur}</p>",
			"careergroup": "Voleur",
			"skills": ["Athlétisme", "Calme", "Escalade", "Esquive", "Discrétion (Urbaine)", "Intuition", "Perception", "Résistance", "Crochetage", "Escamotage", "Évaluation", "Ragot", "Savoir (Local)", "Symboles secrets (Voleur)", "Distance (Arbalète)", "Intimidation", "Pari", "Subornation"],
			"incomeSkill": [4],
			"trappings": ["Arbalète de poing avec 10 Carreaux"]
		},
		{
			"id": "Master Wizard",
			"name": "Maître Sorcier",
			"description": "",
			"trappings": [
				"Apprenti",
				"Cheval de guerre léger",
				"Objet Magique"
			]			
		},
		{
			"id": "Menial",
			"name": "Domestique",
			"description": "",
			"trappings": [
				"Balai brosse"
			]			
		},
		{
			"id": "Merchant",
			"name": "Marchand",
			"description": "",
			"trappings": [
				"Péniche fluviale ou 2 charriots",
				"Licence de Guilde",
				"20 CO"
			]			
		},
		{
			"id": "Merchant Prince",
			"name": "Prince Marchand",
			"description": "",
			"trappings": [
				"2 Péniche fluviable ou 4 charriots",
				"Grande zone immobilière",
				"2 Entrepots",
				"1000 CO",
				"Vêtements de qualité"
			]			
		},
		{
			"id": "Messenger",
			"name": "Messager",
			"trappings": [
				"Arme à 1 main",
				"Veste en cuir",
				"Cheval de selle avec Fontes et Selle"
			]			
		},
		{
			"id": "Mine Foreman",
			"name": "Contremaître de Mine",
			"trappings": [
				"Equipe de mineurs",
				"Nécessaire d'écriture"
			]			
		},
		{
			"id": "Miner",
			"name": "Mineur",
			"trappings": [
				"Lampe Darvich",
				"Arme à 1 main (Pique)",
				"Huile de lampe",
				"Veste de cuir"
			]			
		},
		{
			"id": "Mystic",
			"name": "Mystique",
			"trappings": [
				"Assortiment d'amulettes"
			]			
		},
		{
			"id": "Noble",
			"name": "Noble",
			"description": "<p>@Compendium[wfrp4e-core.career-descriptions.CMIowWLOafHKAhnB]{Noble}</p>",
			"careergroup": "Noble",
			"skills": ["Commandement", "Intimidation", "Mêlée (Escrime)", "Musique (Au choix)", "Pari", "Résistance à l'alcool", "Savoir (Héraldique)", "Subornation", "Charisme", "Équitation (Cheval)","Langue (Classique)", "Mêlée (Parade)", "Ragot", "Savoir (Local)"],
			"incomeSkill": [0],
			"trappings": ["Bijoux d'une valeur de 50 co", "Cape de qualité ou Main Gauche", "Cheval de selle avec selle et harnais ou Diligence", "4 Domestiques", "Tenue de cour", "Tenue de cour de qualité"]
		},
		{
			"id": "Noble Lord",
			"name": "Seigneur noble",
			"description": "<p>@Compendium[wfrp4e-core.career-descriptions.CMIowWLOafHKAhnB]{Noble}</p>",
			"careergroup": "Noble",
			"skills": ["Commandement", "Intimidation", "Mêlée (Escrime)", "Musique (Au choix)", "Pari", "Résistance à l'alcool", "Savoir (Héraldique)", "Subornation", "Charisme", "Équitation (Cheval)","Langue (Classique)", "Mêlée (Parade)", "Ragot", "Savoir (Local)", "Intuition", "Langue (Au choix)", "Perception", "Savoir (Politique)", "Pistage", "Savoir (Au choix)"],
			"incomeSkill": [0],
			"trappings": ["4 ensembles de vêtements de court d'excellente qualité", "Quality Foil or Miroir", "500 CO", "Bijoux d'une valeur de 500 CO", "Province"]
		},
		{
			"id": "OERQpwcRziRTeQRb",
			"name": "Novice",
			"trappings": [
				"Lvre (Religion)",
				"Pourpoint de cuir",
				"Symbole Religieux",
				"Robes",
				"Arme (Au choix)"
			]			
		},
		{
			"id": "Novitiate",
			"name": "Novice",
			"description": "",
	  "trappings": [
		"Symboles Religieux",
				"Robes"
			]
		},
		{
			"id": "Nun",
			"name": "Nonne",
			"description": "",
			"trappings": [
				"Livre (Religion)",
				"Relique Religieuse",
				"Outils de la profession (Au choix)"
			]			
		},
		{
			"id": "Officer",
			"name": "Officier",
			"description": "<p>@Compendium[wfrp4e-core.career-descriptions.kT0ZI0LoHmIvhjPk]{Soldat}</p>",
			"careergroup": "Soldat",
			"skills": ["Athlétisme", "Calme", "Escalade", "Esquive", "Langue (Bataille)", "Mêlée (Basique)", "Musique (Tambour ou Flûte)", "Résistance", "Distance (Au choix)", "Mêlée (Au choix)", "Pari", "Ragot", "Résistance à l'alcool", "Survie en extérieur", "Commandement", "Intuition", "Perception", "Soin", "Navigation", "Savoir (Guerre)"],
			"incomeSkill": [5],
			"trappings": ["Cheval de guerre léger avec selle et harnais", "Carte", "Lettre de mission", "Ordres", "Unité de Soldats", "Uniforme de qualité", "Symbole de rang"]
		},
		{
			"id": "Outlaw",
			"name": "Hors-la-loi",
			"description": "<p>@Compendium[wfrp4e-core.career-descriptions.mOljt11dxZENtmoR]{Hors-la-loi}</p>",
			"careergroup": "Hors-la-loi",
			"skills": ["Athlétisme", "Calme", "Intimidation", "Mêlée (Basique)", "Pari", "Résistance", "Résistance à l'alcool", "Survie en extérieur", "Discrétion (Rural)", "Distance (Arc)", "Esquive", "Perception", "Savoir (Local)", "Soin"],
			"incomeSkill": [2],
			"trappings": ["Arc avec 10 flèches", "Bouclier", "Tente"]
		},
		{
			"id": "Outlaw Chief",
			"name": "Chef hors-la-loi",
			"description": "<p>@Compendium[wfrp4e-core.career-descriptions.mOljt11dxZENtmoR]{Hors-la-loi}</p>",
			"careergroup": "Hors-la-loi",
			"skills": ["Athlétisme", "Calme", "Intimidation", "Mêlée (Basique)", "Pari", "Résistance", "Résistance à l'alcool", "Survie en extérieur", "Discrétion (Rural)", "Distance (Arc)", "Esquive", "Perception", "Savoir (Local)", "Soin", "Commandement", "Équitation (Cheval)", "Intuition", "Ragot"],
			"incomeSkill": [2],
			"trappings": ["Bande de Hors-la-loi", "Casque", "Cheval de selle avec selle et harnais", "Gilet de mailles à manches"]
		},
		{
			"id": "Pamphleteer",
			"name": "Pamphlétaire",
			"description": "",
			"trappings": [
				"Nécessaire d'écriture",
				"Marteau et clous",
				"Pile d'affichettes"
			]			
		},
		{
			"id": "Pathfinder",
			"name": "Pionnier",
			"description": "<p>@Compendium[wfrp4e-core.career-descriptions.Xl9yyv67BB8a8XFo]{Éclaireur}</p>",
			"careergroup": "Éclaireur",
			"skills": ["Emprise sur les animaux", "Escalade", "Mêlée (Basique)", "Perception", "Ragot", "Résistance", "Savoir (Local)", "Survie en extérieur", "Athlétisme", "Discrétion (Rurale)", "Distance (Arc)", "Équitation (Cheval)", "Navigation", "Pistage", "Marchandage", "Natation", "Soin des animaux", "Symboles secrets (Chasseur)"],
			"incomeSkill": [3],
			"trappings": ["Carte", "Cheval de selle avec selle et harnais", "Sacoches avec 2 semaines de rations", "Tente"]
		},
		{
			"id": "Pauper",
			"name": "Indigent",
			"description": "",
			"trappings": [
				"Vest de mauvaise qualité",
				"Coupe"
			]			
		},
		{
			"id": "Peasant",
			"name": "Paysan",
			"trappings": [
				"Aucun"
			]			
		},
		{
			"id": "Pedlar",
			"name": "Colporteur",
			"trappings": [
				"Mule et sacoches",
				"Biens pour une valeur de 2d10 pistoles",
				"Assortiments de pots et poêles",
				"Trade Tools (Médecine)"
			]			
		},
		{
			"id": "Penitent",
			"name": "Pénitent",
			"description": "<p>@Compendium[wfrp4e-core.career-descriptions.Vtice54Y7PV95Dkp]{Flagellant}</p>",
			"careergroup": "Flagellant",
			"skills": ["Esquive", "Intimidation", "Intuition", "Mêlée (Fléau)", "Résistance", "Savoir (Sigmar)", "Soin", "Survie en extérieur", "Art (Idole)", "Athlétisme", "Calme", "Distance (Fronde)", "Langue (Classique)", "Savoir (Empire)", "Charisme", "Langue (Au choix)", "Perception", "Savoir (Théologie)"],
			"incomeSkill": [3],
			"trappings": ["Relique religieuse"]
		},
		{
			"id": "Physician",
			"name": "Médecin",
			"description": "<p>@Compendium[wfrp4e-core.career-descriptions.Ora8bmvHERjYWEQn]{Médecin}</p>",
			"careergroup": "Médecin",
			"skills": ["Calme", "Conduite", "Escamotage", "Intimidation", "Perception", "Résistance", "Soin", "Subornation", "Charisme", "Langue (Guilde)", "Marchandage", "Métier (Barbier)", "Savoir (Anatomie)", "Savoir (Médecine)"],
			"incomeSkill": [6],
			"trappings": ["Licence de guilde", "Livre (Médecine)", "Outils de métier (Médecine)"]
		},
		{
			"id": "Physician's Apprentice",
			"name": "Apprenti médecin",
			"description": "<p>@Compendium[wfrp4e-core.career-descriptions.Ora8bmvHERjYWEQn]{Médecin}</p>",
			"careergroup": "Médecin",
			"skills": ["Calme", "Conduite", "Escamotage", "Intimidation", "Perception", "Résistance", "Soin", "Subornation"],
			"incomeSkill": [6],
			"trappings": ["Bandages", "Potion de soin"]
		},
		{
			"id": "Pilot",
			"name": "Pilote",
			"trappings": [
				"Perche",
				"Lampe Tempête et Huile"
			]			
		},
		{
			"id": "Pit Champion",
			"name": "Champion de Fosse",
			"trappings": [
				"Cuirasse",
				"Heaume"
			]			
		},
		{
			"id": "Pit Fighter",
			"name": "Gladiateur",
			"trappings": [
				"Fléau ou Arme Loude",
				"Arme à 1 main",
				"Filet ou Fouet",
				"Bouclier ou Brise-Lame"
			]			
		},
		{
			"id": "Pit Legend",
			"name": "Légende de la Fosse",
			"trappings": [
				"Casque de qualité"
			]
		},
		{
			"id": "Postilion",
			"name": "Postillon",
			"description": "<p>@Compendium[wfrp4e-core.career-descriptions.BnA8KJuCw16zwOVC]{Cocher}</p>",
			"careergroup": "Cocher",
			"skills": ["Conduite", "Distance (Immobilisation)", "Emprise sur les animaux", "Équitation (Cheval)", "Escalade", "Perception", "Résistance", "Soin des animaux"],
			"incomeSkill": [0],
			"trappings": ["Fouet", "Manteau et gants épais"]
		},
		{
			"id": "Priest",
			"name": "Prêtre",
			"description": "",
			"trappings": [
				"Livre (Religion)",
				"Robes de Cérémonie"
			]			
		},
		{
			"id": "Priest Captain",
			"name": "Prêtre Capitaine",
			"trappings": [
				"Relique Religieuse"
			]			
		},
		{
			"id": "Priest Sergeant",
			"name": "Prêtre Sergent",
			"trappings": [
				"Cheval de guerre léger avec selle et fontes"
			]			
		},
		{
			"id": "Prioress General",
			"name": "Prieure Générale",
			"description": "",
			"trappings": [
		"Ordre Religieux"
			]
		},
		{
			"id": "Procurer",
			"name": "Pourvoyeur",
			"description": "<p>@Compendium[wfrp4e-core.career-descriptions.MY4aFbQL5T9znCUd]{Entremetteur}</p>",
			"careergroup": "Entremetteur",
			"skills": ["Charisme", "Divertissement (Au choix)", "Intimidation", "Marchandage", "Pari", "Ragot", "Résistance à l'alcool", "Subornation", "Esquive", "Intuition", "Mêlée (Basique)", "Perception", "Résistance", "Savoir (Local)", "Calme", "Évaluation", "Langue (Au choix)", "Savoir (Loi)"],
			"incomeSkill": [0],
			"trappings": ["Un cercle de Rabatteurs"]
		},
		{
			"id": "Professor",
			"name": "Professeur",
			"description": "<p>@Compendium[wfrp4e-core.career-descriptions.cIBJfaY9DKJh5ZEM]{Érudit}</p>",
			"careergroup": "Érudit",
			"skills": ["Divertissement (Narration)", "Langue (Classique)", "Marchandage", "Pari", "Ragot", "Recherche", "Résistance à l'alcool", "Savoir (Au choix)", "Art (Écriture)", "Intuition", "Langue (Au choix)", "Métier (Au choix)", "Perception", "Savoir (Au choix)", "Divertissement (Conférence)", "Intimidation", "Langue (Au choix)", "Savoir (Au choix)", "Divertissement (Rhétorique)", "Savoir (Au choix)"],
			"incomeSkill": [7],
			"trappings": ["Étude"]
		},
		{
			"id": "Prophet of Doom",
			"name": "Prophète du destin",
			"description": "<p>@Compendium[wfrp4e-core.career-descriptions.Vtice54Y7PV95Dkp]{Flagellant}</p>",
			"careergroup": "Flagellant",
			"skills": ["Esquive", "Intimidation", "Intuition", "Mêlée (Fléau)", "Résistance", "Savoir (Sigmar)", "Soin", "Survie en extérieur", "Art (Idole)", "Athlétisme", "Calme", "Distance (Fronde)", "Langue (Classique)", "Savoir (Empire)", "Charisme", "Langue (Au choix)", "Perception", "Savoir (Théologie)", "Commandement", "Divertissement (Discours)"],
			"incomeSkill": [3],
			"trappings": ["Acolytes (avec des flagellants, des pénitents et des zélotes)", "Livre (Religion)"]
		},
		{
			"id": "Prospector",
			"name": "Prospecteur",
			"trappings": [
				"Batonnet de charbon",
				"Map sommaire",
				"Poe",
				"Bêche"
			]			
		},
		{
			"id": "Protagonist",
			"name": "Spadassin",
			"description": "<p>@Compendium[wfrp4e-core.career-descriptions.mlLVNBKIUnonqka2]{Spadassin}</p>",
			"careergroup": "Spadassin",
			"skills": ["Athlétisme", "Divertissement (Raillerie)", "Esquive", "Intimidation", "Marchandage", "Mêlée (Au choix)", "Ragot", "Résistance", "Charisme", "Intuition", "Équitation (Cheval)", "Mêlée (Basique)", "Perception", "Subornation"],
			"incomeSkill": [5],
			"trappings": ["Arme de poing", "Bouclier", "Cotte de mailles", "Cheval de selle avec selle et harnais"]
		},
		{
			"id": "Prowler",
			"name": "Rôdeur",
			"description": "<p>@Compendium[wfrp4e-core.career-descriptions.TgcyR0ZdG6bMOK9o]{Voleur}</p>",
			"careergroup": "Voleur",
			"skills": ["Athlétisme", "Calme", "Escalade", "Esquive", "Discrétion (Urbaine)", "Intuition", "Perception", "Résistance"],
			"incomeSkill": [4],
			"trappings": ["Gilet de cuir", "Pied-de-biche", "Sac"]
		},
		{
			"id": "Pugilist",
			"name": "Pugiliste",
			"trappings": [
				"Bandages",
				"Cistes",
				"Veste de cuir"
			]			
		},
		{
			"id": "Rabble Rouser",
			"name": "Fauteur de Troubles",
			"description": "",
			"trappings": [
				"Arme à 1 main",
				"Pamphlet"
			]			
		},
		{
			"id": "Racketeer",
			"name": "Rançonneur",
			"description": "<p>@Compendium[wfrp4e-core.career-descriptions.yGZN7bMjbGH7kCMK]{Rançonneur}</p>",
			"careergroup": "Rançonneur",
			"skills": ["Calme", "Discrétion (Urbaine)", "Esquive", "Intimidation", "Mêlée (Bagarre)", "Résistance", "Résistance à l'alcool", "Savoir (Local)", "Charisme", "Évaluation", "Langue (Estalien ou tiléen)", "Mêlée (Basique)", "Ragot", "Subornation"],
			"incomeSkill": [3],
			"trappings": ["Arme de poing", "Chapeau", "Cotte de mailles"]
		},
		{
			"id": "Rat Catcher",
			"name": "Ratier",
			"description": "<p>@Compendium[wfrp4e-core.career-descriptions.0DuRRCYdahOKxDPF]{Ratier}</p>",
			"careergroup": "Ratier",
			"skills": ["Athlétisme", "Distance (Fronde)", "Dressage (Chien)", "Emprise sur les animaux", "Discrétion (Souterraine ou urbaine)", "Mêlée (Basique)", "Résistance", "Résistance à l'alcool", "Marchandage", "Perception", "Piégeage", "Ragot", "Soin des animaux", "Savoir (Poison)"],
			"incomeSkill": [5],
			"trappings": ["Perche de rats morts", "Pièges à animaux"]
		},
		{
			"id": "Rat Hunter",
			"name": "Chasseur de rat",
			"description": "<p>@Compendium[wfrp4e-core.career-descriptions.0DuRRCYdahOKxDPF]{Ratier}</p>",
			"careergroup": "Ratier",
			"skills": ["Athlétisme", "Distance (Fronde)", "Dressage (Chien)", "Emprise sur les animaux", "Discrétion (Souterraine ou urbaine)", "Mêlée (Basique)", "Résistance", "Résistance à l'alcool"],
			"incomeSkill": [5],
			"trappings": ["Fronde avec munitions", "Petit chien vicieux", "Sac"]
		},
		{
			"id": "Recruit",
			"name": "Recrue",
			"description": "<p>@Compendium[wfrp4e-core.career-descriptions.kT0ZI0LoHmIvhjPk]{Soldat}</p>",
			"careergroup": "Soldat",
			"skills": ["Athlétisme", "Calme", "Escalade", "Esquive", "Langue (Bataille)", "Mêlée (Basique)", "Musique (Tambour ou Flûte)", "Résistance"],
			"incomeSkill": [5],
			"trappings": ["Dague", "Plastron de cuir", "Uniforme"]
		},
		{
			"id": "Reeve",
			"name": "Préfet",
			"trappings": [
				"Cheval avec selles et fontes",
				"Plastron",
				"Bailli"
			]
		},
		{
			"id": "Ringleader",
			"name": "Chef de réseau",
			"description": "<p>@Compendium[wfrp4e-core.career-descriptions.MY4aFbQL5T9znCUd]{Entremetteur}</p>",
			"careergroup": "Entremetteur",
			"skills": ["Charisme", "Divertissement (Au choix)", "Intimidation", "Marchandage", "Pari", "Ragot", "Résistance à l'alcool", "Subornation", "Esquive", "Intuition", "Mêlée (Basique)", "Perception", "Résistance", "Savoir (Local)", "Calme", "Évaluation", "Langue (Au choix)", "Savoir (Loi)", "Commandement", "Savoir (Héraldique)"],
			"incomeSkill": [0],
			"trappings": ["Maison de ville avec une entrée discrète", "Un cercle d'Entremetteurs"]
		},
		{
			"id": "River Elder",
			"name": "Sage des rivières",
			"trappings": [
				"Hutte ou barge fluviale"
			]			
		},
		{
			"id": "River Pirate",
			"name": "Pirate des rivières",
			"trappings": [
				"Arbalète avec 10 careaux",
				"Grapping avec corde",
				"Barge fluviale"
			]			
		},
		{
			"id": "River Recruit",
			"name": "Recrue fluviale",
			"description": "<p>@Compendium[wfrp4e-core.career-descriptions.EBpCBitHuWElKf3D]{Patrouilleur fluvial}</p>",
			"careergroup": "Patrouilleur fluvial",
			"skills": ["Athlétisme", "Canotage", "Esquive", "Mêlée (Basique)", "Natation", "Perception", "Pilotage", "Résistance"],
			"incomeSkill": [3],
			"trappings": ["Arme de poing (Épée)", "Uniforme", "Veste de cuir"]
		},
		{
			"id": "River Runner",
			"name": "Coureur de rivières",
			"trappings": [
				"Grand sac",
				"Masque ou Echarpes",
				"Briquet",
				"Lampe Tempête et Huile"
			]			
		},
		{
			"id": "Riverguide",
			"name": "Guide de rivière",
			"trappings": [
				"Arme à 1 main (Gaffe)",
				"Lampe Tempête et Huile"
			]
		},
		{
			"id": "Riverwarden",
			"name": "Patrouilleur fluvial",
			"description": "<p>@Compendium[wfrp4e-core.career-descriptions.EBpCBitHuWElKf3D]{Patrouilleur fluvial}</p>",
			"careergroup": "Patrouilleur fluvial",
			"skills": ["Athlétisme", "Canotage", "Esquive", "Mêlée (Basique)", "Natation", "Perception", "Pilotage", "Résistance", "Charisme", "Distance (Poudre noire)", "Intimidation", "Ragot", "Savoir (Voies fluviales)", "Subornation"],
			"incomeSkill": [3],
			"trappings": ["Bouclier", "Lanterne et huile", "Pistolet avec 10 coups"]
		},
		{
			"id": "Riverwise",
			"name": "Sage des rivières",
			"trappings": [
				"Barque à rames",
				"Lampte Temête et Huile"
			]	
		},
		{
			"id": "Riverwoman",
			"name": "Femme du fleuve",
	  "trappings": [
				"Piège à anguilles",
				"Pourpoint en cuir",
				"Filet",
				"Lance"
			]
	},
		{
			"id": "Road Captain",
			"name": "Capitaine de la Route",
			"trappings": [
				"Cheval de guerre léger",
				"Pistolet avec 10 balles",
				"Chapeau de qualité et manteau",
				"Unité de patrouilleurs"
			]			
		},
		{
			"id": "Road Sergeant",
			"name": "Sergent de la route",
			"trappings": [
				"Escouade de patrouilleurs",
				"Pistolet avec 10 balles",
				"Bouclier",
				"Symbole du grade"
			]			
		},
		{
			"id": "Road Warden",
			"name": "Patrouilleur routier",
			"trappings": [
				"Arme à 1 main",
				"Cotte de mailles",
				"Cheval de selle avec fontes et selle",
				"Corde"
			]			
		},
		{
			"id": "Route Master",
			"name": "Maître des routes",
			"trappings": [
				"Flotte de diligences et chevaux",
				"Cartes"
			]			
		},
		{
			"id": "Runner",
			"name": "Coureur",
			"trappings": [
				"Etui à parchemins"
			]			
		},
		{
			"id": "Sage",
			"name": "Sage",
			"trappings": [
				"Outils de la profession (Ecriture)"
			]			
		},
		{
			"id": "Scholar",
			"name": "Érudit",
			"description": "<p>@Compendium[wfrp4e-core.career-descriptions.cIBJfaY9DKJh5ZEM]{Érudit}</p>",
			"careergroup": "Érudit",
			"skills": ["Divertissement (Narration)", "Langue (Classique)", "Marchandage", "Pari", "Ragot", "Recherche", "Résistance à l'alcool", "Savoir (Au choix)", "Art (Écriture)", "Intuition", "Langue (Au choix)", "Métier (Au choix)", "Perception", "Savoir (Au choix)"],
			"incomeSkill": [7],
			"trappings": ["Accès à une bibliothèque", "Diplôme"]
		},
		{
			"id": "Scion",
			"name": "Héritier",
			"description": "<p>@Compendium[wfrp4e-core.career-descriptions.CMIowWLOafHKAhnB]{Noble}</p>",
			"careergroup": "Noble",
			"skills": ["Commandement", "Intimidation", "Mêlée (Escrime)", "Musique (Au choix)", "Pari", "Résistance à l'alcool", "Savoir (Héraldique)", "Subornation"],
			"incomeSkill": [0],
			"trappings": ["Bijoux d'une valeur de 3d10 co", "Miroir à main ou Fleuret", "Serviteur personnel", "Tenue de cour"]
		},
		{
			"id": "Scoundrel",
			"name": "Vaurien",
			"description": "<p>@Compendium[wfrp4e-core.career-descriptions.JTKAh4qCOCcPa2yN]{Charlatan}</p>",
			"careergroup": "Charlatan",
			"skills": ["Charisme", "Divertissement (Narration)", "Escamotage", "Marchandage", "Pari", "Ragot", "Résistance", "Subornation", "Calme", "Divertissement (Interprétation)", "Esquive", "Évaluation", "Intuition", "Perception", "Crochetage", "Langue (Voleur)", "Savoir (Héraldique)", "Symboles secrets (Voleur)", "Savoir (Généalogie)", "Recherche"],
			"incomeSkill": [0],
			"trappings": ["Faux sceau", "Nécessaire d'écriture"]
		},
		{
			"id": "Scout",
			"name": "Éclaireur",
			"description": "<p>@Compendium[wfrp4e-core.career-descriptions.Xl9yyv67BB8a8XFo]{Éclaireur}</p>",
			"careergroup": "Éclaireur",
			"skills": ["Emprise sur les animaux", "Escalade", "Mêlée (Basique)", "Perception", "Ragot", "Résistance", "Savoir (Local)", "Survie en extérieur", "Athlétisme", "Discrétion (Rurale)", "Distance (Arc)", "Équitation (Cheval)", "Navigation", "Pistage"],
			"incomeSkill": [3],
			"trappings": ["Arc et 10 flèches", "Cotte de mailles"]
		},
		{
			"id": "Seaman",
			"name": "Marin",
			"description": "<p>@Compendium[wfrp4e-core.career-descriptions.wu6aG1XPdzvpiLcR]{Marin}</p>",
			"careergroup": "Marin",
			"skills": ["Canotage", "Escalade", "Mêlée (Bagarre)", "Natation", "Pari", "Pilotage", "Ragot", "Résistance à l'alcool", "Athlétisme", "Esquive", "Divertissement (Chant)", "Langue (Au choix)", "Mêlée (Basique)", "Résistance"],
			"incomeSkill": [5],
			"trappings": ["Arme de poing (Gaffe)", "Gilet de cuir"]
		},
		{
			"id": "Seer",
			"name": "Prophète",
			"trappings": [
				"Outils de la profession (Astrologie)"
			]			
		},
		{
			"id": "Seneschal",
			"name": "Sénéchal",
			"description": "",
			"trappings": [
				"Plastron",
				"Bâton cérémoniel",
				"Equipe de gardiens et concierges"
			]			
		},
		{
			"id": "Sentry",
			"name": "Sentinelle",
			"trappings": [
				"Bocle",
				"Veste en cuir",
				"Lampe tempête avec Huile"
			]			
		},
		{
			"id": "Sergeant",
			"name": "Sergent",
			"description": "<p>@Compendium[wfrp4e-core.career-descriptions.kT0ZI0LoHmIvhjPk]{Soldat}</p>",
			"careergroup": "Soldat",
			"skills": ["Athlétisme", "Calme", "Escalade", "Esquive", "Langue (Bataille)", "Mêlée (Basique)", "Musique (Tambour ou Flûte)", "Résistance", "Distance (Au choix)", "Mêlée (Au choix)", "Pari", "Ragot", "Résistance à l'alcool", "Survie en extérieur", "Commandement", "Intuition", "Perception", "Soin"],
			"incomeSkill": [5],
			"trappings": ["Symbole de rang", "Troupe de Soldats"]
		},
		{
			"id": "Servant",
			"name": "Serviteur",
			"description": "",
			"trappings": [
				"Livrée"
			]			
		},
		{
			"id": "Sewer Jack",
			"name": "Égoutier",
			"description": "<p>@Compendium[wfrp4e-core.career-descriptions.0DuRRCYdahOKxDPF]{Ratier}</p>",
			"careergroup": "Ratier",
			"skills": ["Athlétisme", "Distance (Fronde)", "Dressage (Chien)", "Emprise sur les animaux", "Discrétion (Souterraine ou urbaine)", "Mêlée (Basique)", "Résistance", "Résistance à l'alcool", "Marchandage", "Perception", "Piégeage", "Ragot", "Soin des animaux", "Savoir (Poison)", "Calme", "Distance (Arbalète)", "Escalade", "Esquive"],
			"incomeSkill": [5],
			"trappings": ["Arme de poing", "Lanterne Davrich", "Veste de cuir"]
		},
		{
			"id": "Ship's Master",
			"name": "Capitaine de navire",
			"description": "<p>@Compendium[wfrp4e-core.career-descriptions.wu6aG1XPdzvpiLcR]{Marin}</p>",
			"careergroup": "Marin",
			"skills": ["Canotage", "Escalade", "Mêlée (Bagarre)", "Natation", "Pari", "Pilotage", "Ragot", "Résistance à l'alcool", "Athlétisme", "Esquive", "Divertissement (Chant)", "Langue (Au choix)", "Mêlée (Basique)", "Résistance", "Calme", "Commandement", "Perception", "Métier (Charpentier)", "Charisme", "Navigation"],
			"incomeSkill": [5],
			"trappings": ["Cartes maritimes", "Longue-vue", "Navire et équipage", "Sextant"]
		},
		{
			"id": "Shipsword",
			"name": "Abordeur",
			"description": "<p>@Compendium[wfrp4e-core.career-descriptions.EBpCBitHuWElKf3D]{Patrouilleur fluvial}</p>",
			"careergroup": "Patrouilleur fluvial",
			"skills": ["Athlétisme", "Canotage", "Esquive", "Mêlée (Basique)", "Natation", "Perception", "Pilotage", "Résistance", "Charisme", "Distance (Poudre noire)", "Intimidation", "Ragot", "Savoir (Voies fluviales)", "Subornation", "Calme", "Commandement", "Escalade", "Intuition"],
			"incomeSkill": [3],
			"trappings": ["Casque", "Gilet de mailles", "Grappin"]
		},
		{
			"id": "Shipsword Master",
			"name": "Maître abordeur",
			"description": "<p>@Compendium[wfrp4e-core.career-descriptions.EBpCBitHuWElKf3D]{Patrouilleur fluvial}</p>",
			"careergroup": "Patrouilleur fluvial",
			"skills": ["Athlétisme", "Canotage", "Esquive", "Mêlée (Basique)", "Natation", "Perception", "Pilotage", "Résistance", "Charisme", "Distance (Poudre noire)", "Intimidation", "Ragot", "Savoir (Voies fluviales)", "Subornation", "Calme", "Commandement", "Escalade", "Intuition", "Navigation", "Savoir (Loi)"],
			"incomeSkill": [3],
			"trappings": ["Bateau de patrouille et équipage", "Symbole de rang"]
		},
		{
			"id": "Sleuth",
			"name": "Limier",
			"description": "<p>@Compendium[wfrp4e-core.career-descriptions.DAHJ4cu3WiGCdakE]{Enquêteur}</p>",
			"careergroup": "Enquêteur",
			"skills": ["Calme", "Charisme", "Discrétion (Urbaine)", "Escalade", "Intuition", "Perception", "Pistage", "Ragot"],
			"incomeSkill": [5],
			"trappings": ["Huile à lampe", "Lanterne", "Journal", "Plume et encre"]
		},
		{
			"id": "Smuggler",
			"name": "Contrebandier",
			"trappings": [
				"2 barriques",
				"Arme à 1 main",
				"Veste de Cuir",
				"Barque"
			]			
		},
		{
			"id": "Smuggler King",
			"name": "Roi des contrebandiers",
			"trappings": [
				"Nécessaire de déguisement",
				"Petite flotte de bateau fluviaux"
			]			
		},
		{
			"id": "Soldier",
			"name": "Soldat",
			"description": "<p>@Compendium[wfrp4e-core.career-descriptions.kT0ZI0LoHmIvhjPk]{Soldat}</p>",
			"careergroup": "Soldat",
			"skills": ["Athlétisme", "Calme", "Escalade", "Esquive", "Langue (Bataille)", "Mêlée (Basique)", "Musique (Tambour ou Flûte)", "Résistance", "Distance (Au choix)", "Mêlée (Au choix)", "Pari", "Ragot", "Résistance à l'alcool", "Survie en extérieur"],
			"incomeSkill": [5],
			"trappings": ["Arme de poing (Au choix)", "Casque", "Plastron"]
		},
		{
			"id": "Spy",
			"name": "Espion",
			"description": "",
			"trappings": [
				"Informateur",
				"Arme à 1 main",
				"Nécessaire de déguisement",
				"Réseau d'informateurs",
				"Longue vue"
			]			
		},
		{
			"id": "Spymaster",
			"name": "Maître Espion",
			"description": "",
	  "trappings": [
				"Bureaux et Equipe",
				"Grand réseau d'espions",
				"Espions",
				"Informateurs"
			]
		},
		{
			"id": "Squire",
			"name": "Écuyer",
			"description": "<p>@Compendium[wfrp4e-core.career-descriptions.n2VdkCPNNxdupjeQ]{Chevalier}</p>",
			"careergroup": "Chevalier",
			"skills": ["Athlétisme", "Emprise sur les animaux", "Équitation (Cheval)", "Mêlée (Cavalerie)", "Métier (Maréchal-ferrant)", "Savoir (Héraldique)", "Soin", "Soin des animaux"],
			"incomeSkill": [3],
			"trappings": ["Bouclier", "Cotte de mailles", "Cheval de selle avec selle et harnais", "Outils de métier (Maréchal-ferrant)", "Veste de cuir"]
		},
		{
			"id": "Stevedore",
			"name": "Débardeur",
			"description": "<p>@Compendium[wfrp4e-core.career-descriptions.DAHJ4cu3WiGCdakE]{Débardeur}</p>",
			"careergroup": "Débardeur",
			"skills": ["Athlétisme", "Escalade", "Esquive", "Mêlée (Basique)", "Natation", "Ragot", "Résistance", "Résistance à l'alcool", "Discrétion (Urbaine)", "Divertissement (Narration)", "Intimidation", "Pari", "Perception", "Subornation"],
			"incomeSkill": [6],
			"trappings": ["Casquette de porteur", "Licence de guilde", "Pipe et tabac", "Gilet de cuir"]
		},
		{
			"id": "Steward",
			"name": "Régisseur",
			"description": "",
			"trappings": [
				"Arme à 1 main",
				"Vêtements de luxe",
				"Serviteur"
			]			
		},
		{
			"id": "Student",
			"name": "Étudiant",
			"description": "<p>@Compendium[wfrp4e-core.career-descriptions.cIBJfaY9DKJh5ZEM]{Érudit}</p>",
			"careergroup": "Érudit",
			"skills": ["Divertissement (Narration)", "Langue (Classique)", "Marchandage", "Pari", "Ragot", "Recherche", "Résistance à l'alcool", "Savoir (Au choix)"],
			"incomeSkill": [7],
			"trappings": ["Alcool", "Lettres de recommandation", "Livre", "Nécessaire d'écriture"]
		},
		{
			"id": "Student Engineer",
			"name": "Etudiant",
			"description": "",
			"trappings": [
				"Livre (Ingénieur)",
				"Marteau et Pointes"
			]			
		},
		{
			"id": "Student Lawyer",
			"name": "Juriste étudiant",
			"description": "",
			"trappings": [
				"Livre (Loi)",
				"Loupe"
			]			
		},
		{
			"id": "Swindler",
			"name": "Escroc",
			"trappings": [
				"Sac à Dos",
				"2 ensemble de vêtements",
				"Paquet de cartes",
				"Dés"
			]			
		},
		{
			"id": "Tax Collector",
			"name": "Percepteur",
			"trappings": [
				"Arme à 1 main",
				"Petite coffre à serrure"
			]			
		},
		{
			"id": "Thief",
			"name": "Voleur",
			"description": "<p>@Compendium[wfrp4e-core.career-descriptions.TgcyR0ZdG6bMOK9o]{Voleur}</p>",
			"careergroup": "Voleur",
			"skills": ["Athlétisme", "Calme", "Escalade", "Esquive", "Discrétion (Urbaine)", "Intuition", "Perception", "Résistance", "Crochetage", "Escamotage", "Évaluation", "Ragot", "Savoir (Local)", "Symboles secrets (Voleur)"],
			"incomeSkill": [4],
			"trappings": ["Corde", "Outils de métier (Voleur)"]
		},
		{
			"id": "Thief-taker",
			"name": "Chasseur de voleurs",
	  "trappings": [
				"Arme à 1 main",
				"Pourpoint de cuir",
				"Corde"
			]
		},
		{
			"id": "Thug",
			"name": "Malfrat",
			"description": "<p>@Compendium[wfrp4e-core.career-descriptions.yGZN7bMjbGH7kCMK]{Rançonneur}</p>",
			"careergroup": "Rançonneur",
			"skills": ["Calme", "Discrétion (Urbaine)", "Esquive", "Intimidation", "Mêlée (Bagarre)", "Résistance", "Résistance à l'alcool", "Savoir (Local)"],
			"incomeSkill": [3],
			"trappings": ["Coups-de-poing", "Veste de cuir"]
		},
		{
			"id": "Toll Keeper",
			"name": "Garde barrière",
			"trappings": [
				"Arbalète avec 10 carreaux",
				"Veste de cuir"
			]			
		},
		{
			"id": "Tomb Robber",
			"name": "Pilleur de tombeaux",
			"description": "<p>@Compendium[wfrp4e-core.career-descriptions.W2Ovj3ec7eqZUuuv]{Pilleur de tombes}</p>",
			"careergroup": "Pilleur de tombes",
			"skills": ["Calme", "Escalade", "Esquive", "Discrétion (Au choix)", "Intuition", "Perception", "Ragot", "Résistance", "Conduite", "Évaluation", "Marchandage", "Mêlée (Basique)", "Savoir (Médecine)", "Subornation"],
			"incomeSkill": [3],
			"trappings": ["Arme de poing (Pioche)","Cheval et charrette", "Corde", "Outils de métier (Voleur)", "Veste de cuir"]			
		},
		{
			"id": "Town Councilor",
			"name": "Conseiller municipal",
			"description": "",
			"trappings": [
				"Coche et Cocher",
				"Maison de ville"
			]			
		},
		{
			"id": "Townsman",
			"name": "Bourgeois",
			"description": "",
			"trappings": [
				"Modeste maison de ville",
				"Serviteur",
				"Encre et plume"
			]			
		},
		{
			"id": "Tracker",
			"name": "Pisteur",
			"trappings": [
				"Sac à Dos",
				"Sac de couchage",
				"Tente"
			]			
		},
		{
			"id": "Trader",
			"name": "Négociant",			
			"description": "",
			"trappings": [
				"Boulier",
				"Mule et Charrette",
				"Bâche en toile",
				"3d10 Pistoles"
			]
		},
		{
			"id": "Trapper",
			"name": "Trappeur",
			"trappings": [
				"Assortiment de pièges à animaux",
				"Arme à 1 main",
				"Bottes confortables et manteau",
				"Fronde avec 10 pierres plombées"
			]			
		},
		{
			"id": "Treasure Hunter",
			"name": "Chasseur de trésor",
			"description": "<p>@Compendium[wfrp4e-core.career-descriptions.W2Ovj3ec7eqZUuuv]{Pilleur de tombes}</p>",
			"careergroup": "Pilleur de tombes",
			"skills": ["Calme", "Escalade", "Esquive", "Discrétion (Au choix)", "Intuition", "Perception", "Ragot", "Résistance", "Conduite", "Évaluation", "Marchandage", "Mêlée (Basique)", "Savoir (Médecine)", "Subornation", "Navigation", "Métier (Ingénieur)"],
			"incomeSkill": [3],
			"trappings": ["Cartes", "Nécesssaire d'écriture", "Outils de métier (Ingénieur)", "Sac de couchage", "Tente"]			
		},
		{
			"id": "Troll Slayer",
			"name": "Tueur de Trolls",
			"trappings": [
				"Hache",
				"Flasque d'alcool",
				"Honte",
				"Tatouages"
			]			
		},
		{
			"id": "Troubadour",
			"name": "Troubadour",
			"trappings": [
				"Animal dressé",
				"Nécessaire d'écriture"
			]			
		},
		{
			"id": "Troupe Leader",
			"name": "Chef de Troupe",
			"trappings": [
				"Chevaux de trait et wagon de troupe",
				"Garde robe de costumes et perruques",
				"Troupes de comédiens"
			]			
		},
		{
			"id": "Vagabond",
			"name": "Vagabond",
			"trappings": [
				"Sac à dos",
				"Sac de couchage",
				"Biens d'une valeur de 2d10 sous",
				"Tente"
			]			
		},
		{
			"id": "Village Elder",
			"name": "Doyen",
			"trappings": [
				"Le respect du village"
			]			
		},
		{
			"id": "Villager",
			"name": "Villageois",
			"trappings": [
				"Pourpoint de cuir",
				"Arme à 1 main (Hache)",
				"Outils selon profession"
			]			
		},
		{
			"id": "Wandering Trader",
			"name": "Négociant itinérant",
			"trappings": [
				"Cheval de trait et chariot fermé",
				"Biens une valeur de 5d10 CO",
				"50 pistoles d'argent"
			]			
		},
		{
			"id": "Warden",
			"name": "Intendant",
			"description": "",
			"trappings": [
				"Arme à 1 main ou Arc avec 10 flèches",
				"Cheval de sell avec fontes et selle",
				"Veste de cuir"
			]			
		},
		{
			"id": "Warlock",
			"name": "Démoniste",
			"trappings": [
				"Robes",
				"Crânes"
			]			
		},
		{
			"id": "Warrior Priest",
			"name": "Prêtre Guerrier",
			"trappings": [
				"Cuirasse",
				"Arme (Au choix)"
			]			
		},
		{
			"id": "Watch Captain",
			"name": "Capitaine de la garde",
			"description": "<p>@Compendium[wfrp4e-core.career-descriptions.Tt8DCpewqkmBq02v]{Garde}</p>",
			"careergroup": "Garde",
			"skills": ["Athlétisme", "Escalade", "Esquive", "Mêlée (Au choix)", "Pari", "Perception", "Résistance", "Résistance à l'alcool", "Calme", "Charisme", "Intimidation", "Intuition", "Ragot", "Savoir (Local)", "Commandement", "Divertissement (Narration)", "Marchandage", "Savoir (Loi)", "Équitation (Cheval)", "Savoir (Politique)"],
			"incomeSkill": [5],
			"trappings": ["Arme de poing de qualité", "Chapeau de qualité", "Cheval de selle avec selle et harnais", "Chapeau", "Symbole de rang de qualité"]
		},
		{
			"id": "Watch Recruit",
			"name": "Recrue de la garde",
			"description": "<p>@Compendium[wfrp4e-core.career-descriptions.Tt8DCpewqkmBq02v]{Garde}</p>",
			"careergroup": "Garde",
			"skills": ["Athlétisme", "Escalade", "Esquive", "Mêlée (Au choix)", "Pari", "Perception", "Résistance", "Résistance à l'alcool"],
			"incomeSkill": [5],
			"trappings": ["Arme de poing", "Uniforme", "Veste de cuir"]
		},
		{
			"id": "Watch Sergeant",
			"name": "Sergent de la garde",
			"description": "<p>@Compendium[wfrp4e-core.career-descriptions.Tt8DCpewqkmBq02v]{Garde}</p>",
			"careergroup": "Garde",
			"skills": ["Athlétisme", "Escalade", "Esquive", "Mêlée (Au choix)", "Pari", "Perception", "Résistance", "Résistance à l'alcool", "Calme", "Charisme", "Intimidation", "Intuition", "Ragot", "Savoir (Local)", "Commandement", "Divertissement (Narration)", "Marchandage", "Savoir (Loi)"],
			"incomeSkill": [5],
			"trappings": ["Casque", "Plastron", "Insigne de rang"]
		},
		{
			"id": "Watchman",
			"name": "Garde",
			"description": "<p>@Compendium[wfrp4e-core.career-descriptions.Tt8DCpewqkmBq02v]{Garde}</p>",
			"careergroup": "Garde",
			"skills": ["Athlétisme", "Escalade", "Esquive", "Mêlée (Au choix)", "Pari", "Perception", "Résistance", "Résistance à l'alcool", "Calme", "Charisme", "Intimidation", "Intuition", "Ragot", "Savoir (Local)"],
			"incomeSkill": [5],
			"trappings": ["Badge de cuivre", "Huile à lampe", "Lanterne et perche"]
		},
		{
			"id": "Witch",
			"name": "Sorcier sauvage",
			"trappings": [
				"Baton de combat",
				"Sac",
				"Assortiment d'herbes",
				"Outils de la profession (Herboriste)"
			]			
		},
		{
			"id": "Witch Hunter",
			"name": "Répurgateur",
			"trappings": [
				"Arbalète à répétition ou Pistolet",
				"Chapeau (Henin)",
				"Veste de cuir",
				"Cheval de selle avec fontes et selles",
				"Corde",
				"Epée d'argent"
			]			
		},
		{
			"id": "Witchfinder General",
			"name": "Répurgateur vétéran",
			"trappings": [
				"Vêtements de cour de qualité",
				"Répurgateurs subordonnés"
			]			
		},
		{
			"id": "Wizard",
			"name": "Sorcier",
			"description": "",
			"trappings": [
				"Licence de Magie"
			]			
		},
		{
			"id": "Wizard Lord",
			"name": "Seigneur Sorcier",
			"description": "",
			"trappings": [
				"Apprenti",
				"Bibliothèque (Magie)",
				"Atelier (Magie)"
			]			
		},
		{
			"id": "Wizard's Apprentice",
			"name": "Apprenti Sorcier",
			"description": "",
			"trappings": [
				"Grimoire",
				"Bâton"
			]			
		},
		{
			"id": "Wrecker",
			"name": "Naufrageur",
			"trappings": [
				"Arme à 1 main (Crochet)",
				"Veste de cuir",
				"Lampe tempête et Huile"
			]			
		},
		{
			"id": "Wrecker Captain",
			"name": "Capitaine Naufrageur",
			"trappings": [
				"Flotte de bateaux fluviaux et équipages de naufrageurs",
				"Pinte de bière",
				"Menottes"
			]			
		},
		{
			"id": "Wyrd",
			"name": "Devin",
			"trappings": [
				"Sac à dos",
				"Manteau avec nombreuses poches",
				"Charme de chance"
			]			
		},
		{
			"id": "Zealot",
			"name": "Zélote",
			"description": "<p>@Compendium[wfrp4e-core.career-descriptions.Vtice54Y7PV95Dkp]{Flagellant}</p>",
			"careergroup": "Flagellant",
			"skills": ["Esquive", "Intimidation", "Intuition", "Mêlée (Fléau)", "Résistance", "Savoir (Sigmar)", "Soin", "Survie en extérieur"],
			"incomeSkill": [3],
			"trappings": ["Fléau", "Robes en lambeaux"]
		}		
	]
}
